<?xml version="1.0" standalone="no"?>
<!DOCTYPE svg PUBLIC "-//W3C//DTD SVG 1.1//EN" "http://www.w3.org/Graphics/SVG/1.1/DTD/svg11.dtd" >
<svg xmlns="http://www.w3.org/2000/svg">
<metadata></metadata>
<defs>
<font id="allerbold" horiz-adv-x="600" >
<font-face units-per-em="1000" ascent="800" descent="-200" />
<missing-glyph horiz-adv-x="220" />
<glyph unicode="&#xfb01;" horiz-adv-x="632" d="M104 409h-82q-3 16 -4 29t-1 27q0 13 1 25t4 27h82v25q0 48 17.5 85.5t48 63t73.5 39t94 13.5q50 0 92 -6t82 -23q-2 -33 -10.5 -61t-22.5 -51q-35 14 -64 19t-62 5q-19 0 -38 -3.5t-34 -13t-24.5 -26.5t-10.5 -44v-22h317v-517q-36 -6 -70 -6q-33 0 -69 6v409h-178v-409 q-36 -6 -70 -6q-35 0 -71 6v409z" />
<glyph unicode="&#xfb02;" horiz-adv-x="678" d="M104 409h-82q-3 16 -4 29t-1 27q0 13 1 25t4 27h82v25q0 97 69 149t194 52q27 0 50 -1t45 -3t46 -5.5t53 -7.5v-520q0 -31 3.5 -50t11 -29.5t19.5 -14.5t30 -4q8 0 17.5 1t18.5 3q11 -38 11 -77v-16t-2 -16q-16 -5 -38.5 -7t-41.5 -2q-77 0 -123 42.5t-46 138.5v446 q-17 5 -34 5.5t-28 0.5q-22 0 -42.5 -3.5t-36 -13.5t-25 -27t-10.5 -44v-22h110q3 -16 4 -29t1 -27q0 -13 -1 -25t-4 -27h-110v-409q-36 -6 -70 -6q-35 0 -71 6v409z" />
<glyph unicode="&#xfb03;" horiz-adv-x="953" d="M104 409h-82q-3 16 -4 29t-1 27q0 13 1 25t4 27h82v19q0 97 54 149t142 52q33 0 58 -3t49 -10q-5 -36 -15 -61.5t-22 -50.5q-10 3 -21 5.5t-29 2.5q-16 0 -29.5 -3.5t-23.5 -13t-15.5 -26.5t-6.5 -44v-16h186v25q0 48 17.5 85.5t48 63t73.5 39t94 13.5q50 0 92 -6t82 -23 q-2 -33 -10.5 -61t-22.5 -51q-35 14 -64 19t-62 5q-19 0 -38 -3.5t-34 -13t-24.5 -26.5t-10.5 -44v-22h317v-517q-36 -6 -70 -6q-33 0 -69 6v409h-178v-409q-36 -6 -70 -6q-35 0 -71 6v409h-186v-409q-36 -6 -70 -6q-35 0 -71 6v409z" />
<glyph unicode="&#xfb04;" horiz-adv-x="1005" d="M104 409h-82q-3 16 -4 29t-1 27q0 13 1 25t4 27h82v19q0 97 54 149t142 52q33 0 58 -3t49 -10q-5 -36 -15 -61.5t-22 -50.5q-10 3 -21 5.5t-29 2.5q-16 0 -29.5 -3.5t-23.5 -13t-15.5 -26.5t-6.5 -44v-16h186v25q0 97 69 149t194 52q27 0 50 -1t45 -3t46 -5.5t53 -7.5 v-520q0 -31 3.5 -50t11 -29.5t19.5 -14.5t30 -4q8 0 17.5 1t18.5 3q11 -41 11 -80v-16t-2 -13q-16 -5 -38.5 -7t-41.5 -2q-77 0 -123 42.5t-46 138.5v446q-17 5 -34 5.5t-28 0.5q-22 0 -42.5 -3.5t-36 -13.5t-25 -27t-10.5 -44v-22h110q3 -16 4 -29t1 -27q0 -13 -1 -25 t-4 -27h-110v-409q-36 -6 -70 -6q-35 0 -71 6v409h-186v-409q-36 -6 -70 -6q-35 0 -71 6v409z" />
<glyph horiz-adv-x="0" />
<glyph unicode="&#xd;" horiz-adv-x="500" />
<glyph unicode=" "  horiz-adv-x="220" />
<glyph unicode="&#x09;" horiz-adv-x="220" />
<glyph unicode="&#xa0;" horiz-adv-x="220" />
<glyph unicode="!" horiz-adv-x="299" d="M72 719q39 6 77 6q39 0 78 -6l-10 -489q-35 -6 -67 -6q-34 0 -68 6zM76 0q-6 37 -6 73t6 74q37 6 73 6t74 -6q6 -38 6 -73q0 -37 -6 -74q-38 -6 -73 -6q-37 0 -74 6z" />
<glyph unicode="&#x22;" horiz-adv-x="429" d="M50 720q17 3 32 4t32 1t32.5 -1t32.5 -4v-281q-17 -3 -32 -4t-32 -1t-32.5 1t-32.5 4v281zM250 720q17 3 32 4t32 1t32.5 -1t32.5 -4v-281q-17 -3 -32 -4t-32 -1t-32.5 1t-32.5 4v281z" />
<glyph unicode="#" horiz-adv-x="734" d="M170 205h-113q-4 23 -4 52q0 14 1.5 27t3.5 27h121l10 121h-112q-2 14 -3.5 27t-1.5 27t1.5 26.5t3.5 26.5h121l13 151q16 3 30.5 4t31.5 1q15 0 29.5 -1t29.5 -4l-13 -151h122l13 151q17 3 31 4t31 1q15 0 29.5 -1t30.5 -4l-13 -151h105q2 -14 3.5 -25.5t1.5 -25.5 t-1.5 -28t-3.5 -28h-113l-10 -121h104q2 -14 3.5 -26t1.5 -26t-1.5 -27t-3.5 -27h-113l-14 -175q-17 -3 -31.5 -4t-30.5 -1t-30 1t-30 4l14 175h-121l-14 -175q-17 -3 -31.5 -4t-31.5 -1q-15 0 -29 1t-31 4zM423 311l10 121h-122l-10 -121h122z" />
<glyph unicode="$" d="M262 -12h-8q-33 0 -59 2t-49.5 6.5t-46.5 11.5t-48 17q3 29 11 58.5t19 61.5q42 -17 79 -23.5t79 -6.5q63 0 97.5 21.5t34.5 69.5q0 24 -9.5 39.5t-24 25.5t-32.5 17t-35 15l-53 23q-33 14 -60 29.5t-46.5 37t-30 50.5t-10.5 71q0 90 51 142t141 63v106q21 6 43 6 q21 0 44 -6v-103q40 -3 77 -11.5t78 -22.5q-6 -58 -32 -114q-15 6 -30.5 12t-33 10t-39.5 6.5t-50 2.5q-17 0 -34.5 -2.5t-31.5 -10.5t-23 -22.5t-9 -37.5q0 -20 7 -34t19 -23.5t27 -16.5t30 -13l60 -25q38 -16 69 -32t52.5 -38.5t33.5 -55t12 -81.5q0 -82 -46.5 -138.5 t-135.5 -76.5v-116q-21 -6 -43 -6t-44 6v106z" />
<glyph unicode="%" horiz-adv-x="1050" d="M702 709q34 6 70 6q31 0 69 -6l-484 -707q-35 -6 -67 -6q-34 0 -71 6zM243 389q36 0 53 32t17 85q0 54 -17 85.5t-53 31.5t-53 -31.5t-17 -85.5q0 -53 17 -85t53 -32zM243 294q-50 0 -86.5 18t-60 47.5t-35 67.5t-11.5 79t11.5 79.5t35 68t60 47.5t86.5 18q49 0 85.5 -18 t60.5 -47.5t35.5 -68t11.5 -79.5t-11.5 -79t-35.5 -67.5t-60.5 -47.5t-85.5 -18zM816 83q36 0 53 32t17 85q0 54 -17 85.5t-53 31.5t-53 -31.5t-17 -85.5q0 -53 17 -85t53 -32zM816 -12q-50 0 -86.5 18t-60 47.5t-35 67.5t-11.5 79t11.5 79.5t35 68t60 47.5t86.5 18 q49 0 85.5 -18t60.5 -47.5t35.5 -68t11.5 -79.5t-11.5 -79t-35.5 -67.5t-60.5 -47.5t-85.5 -18z" />
<glyph unicode="&#x26;" horiz-adv-x="763" d="M491 466l118 141h22v-141h102q3 -15 4 -27t1 -25q0 -14 -1 -27t-4 -29h-102v-122q0 -62 -21.5 -108t-62 -77.5t-97.5 -47t-128 -15.5q-52 0 -101 11.5t-87.5 37.5t-61.5 67t-23 100q0 36 10.5 68t27.5 58t38.5 44.5t43.5 27.5q-37 20 -64 56.5t-27 91.5q0 45 17.5 79 t48 56.5t71 34t87.5 11.5q29 0 65.5 -4.5t75.5 -18.5q0 -57 -31 -105q-33 12 -59 14.5t-44 2.5q-48 0 -69 -22.5t-21 -53.5q0 -17 5 -31.5t17 -25t31.5 -16t48.5 -5.5h170zM493 358h-168q-54 0 -86.5 -34.5t-32.5 -89.5q0 -56 30.5 -90t101.5 -34q48 0 77.5 14t46.5 37 t23.5 52t7.5 60v85z" />
<glyph unicode="'" horiz-adv-x="229" d="M50 720q17 3 32 4t32 1t32.5 -1t32.5 -4v-281q-17 -3 -32 -4t-32 -1t-32.5 1t-32.5 4v281z" />
<glyph unicode="(" horiz-adv-x="357" d="M166 -167q-23 37 -44 84t-37 105t-25.5 128.5t-9.5 154.5t9.5 154.5t25.5 128.5t37 104.5t44 83.5q9 3 27.5 4.5t39.5 1.5q20 0 40 -1.5t34 -4.5q-12 -20 -31 -59.5t-37 -98.5t-31.5 -137t-13.5 -176t13.5 -176.5t31.5 -137.5t37 -98.5t31 -59.5q-14 -3 -34 -4.5 t-40 -1.5q-21 0 -39.5 1.5t-27.5 4.5z" />
<glyph unicode=")" horiz-adv-x="357" d="M50 -167q12 20 31 59.5t37 98.5t31.5 137.5t13.5 176.5t-13.5 176t-31.5 137t-37 98.5t-31 59.5q14 3 34 4.5t40 1.5q21 0 39.5 -1.5t27.5 -4.5q23 -37 44 -83.5t37 -104.5t25.5 -128.5t9.5 -154.5t-9.5 -154.5t-25.5 -128.5t-37 -105t-44 -84q-9 -3 -27.5 -4.5 t-39.5 -1.5q-20 0 -40 1.5t-34 4.5z" />
<glyph unicode="*" horiz-adv-x="484" d="M214 719q18 3 36 3q20 0 40 -3l12 -137q-14 -2 -26.5 -3t-25.5 -1q-28 0 -47 4zM36 532q2 19 9 37.5t15 34.5l134 -31q-9 -53 -31 -94zM260 406q39 37 80 58l72 -117q-14 -14 -29.5 -25.5t-32.5 -19.5zM445 605q9 -17 14.5 -36t8.5 -36l-127 -54q-12 24 -19.5 48 t-10.5 46zM166 463q41 -21 80 -58l-90 -104q-17 8 -32.5 19.5t-29.5 25.5z" />
<glyph unicode="+" d="M239 293h-157q-6 30 -6 60q0 31 6 61h157v177q30 6 60 6q31 0 61 -6v-177h157q6 -30 6 -60q0 -31 -6 -61h-157v-177q-30 -6 -60 -6q-31 0 -61 6v177z" />
<glyph unicode="," horiz-adv-x="291" d="M100 144q17 4 34 5.5t33 1.5t35 -1.5t36 -5.5l-73 -256q-17 -4 -34 -5t-33 -1t-31.5 1t-32.5 5z" />
<glyph unicode="-" horiz-adv-x="371" d="M313 336q6 -30 6 -61q0 -32 -6 -62h-255q-6 30 -6 61q0 32 6 62h255z" />
<glyph unicode="." horiz-adv-x="289" d="M71 0q-6 37 -6 73t6 74q37 6 73 6t74 -6q6 -38 6 -73q0 -37 -6 -74q-38 -6 -73 -6q-37 0 -74 6z" />
<glyph unicode="/" horiz-adv-x="409" d="M255 719q37 6 72 6q34 0 70 -6l-244 -719q-36 -6 -71 -6q-34 0 -70 6z" />
<glyph unicode="0" d="M301 -12q-67 0 -116 25t-80.5 70t-47 106.5t-15.5 134.5t16 135t48 107t81.5 70.5t117.5 25.5q67 0 116 -25.5t81 -70.5t47 -107t15 -135t-16 -134.5t-48 -106.5t-82 -70t-117 -25zM303 108q51 0 79.5 52.5t28.5 163.5t-28.5 163.5t-79.5 52.5q-52 0 -81.5 -52.5 t-29.5 -163.5t30 -163.5t81 -52.5z" />
<glyph unicode="1" d="M260 120v350l-123 -49q-19 25 -32 51q-13 27 -21 56l287 126h27v-534h143q3 -17 4 -31t1 -28q0 -16 -1 -30t-4 -31h-426q-3 17 -4 31t-1 30q0 14 1 28t4 31h145z" />
<glyph unicode="2" d="M56 15l146 191q34 45 61 79t45.5 62.5t28 53t9.5 49.5q0 42 -29.5 65t-82.5 23q-22 0 -38.5 -2t-31.5 -6t-29.5 -9.5t-30.5 -12.5q-13 28 -22.5 57t-11.5 59q24 9 44.5 16.5t41.5 12t43.5 7t51.5 2.5q53 0 98 -11.5t77.5 -35.5t50.5 -60.5t18 -85.5q0 -36 -10 -69 t-28 -65.5t-42.5 -67t-54.5 -74.5l-53 -71h213q6 -30 6 -59q0 -33 -6 -63h-457z" />
<glyph unicode="3" d="M168 288l134 242h-220q-6 30 -6 60q0 32 6 62h418l10 -17l-161 -267h4q39 0 70.5 -15t53 -39.5t33 -56.5t11.5 -65q0 -64 -22 -112.5t-61 -81t-92 -49t-115 -16.5q-30 0 -53.5 1.5t-45 5.5t-43.5 10.5t-49 15.5q2 31 11.5 62t23.5 55q38 -12 71.5 -20t77.5 -8 q32 0 60.5 7.5t49.5 23t33.5 39.5t12.5 58q0 25 -11 43.5t-29 30.5t-42 17.5t-50 5.5q-17 0 -35 -1t-35 -6z" />
<glyph unicode="4" d="M16 95l283 572q34 -4 65.5 -14.5t59.5 -32.5l-206 -418h143v160q17 2 33 3.5t33 1.5q18 0 36 -1.5t36 -3.5v-160h72q6 -29 6 -60q0 -15 -1.5 -31t-4.5 -30h-72v-140q-17 -2 -33 -3.5t-33 -1.5q-18 0 -36 1.5t-36 3.5v140h-336z" />
<glyph unicode="5" d="M125 652h358q6 -30 6 -60q0 -32 -6 -62h-230l-6 -143q18 4 32 5.5t29 1.5q49 0 89 -13.5t68.5 -40t44.5 -65.5t16 -90q0 -62 -21.5 -109t-61 -79t-96 -48t-126.5 -16q-13 0 -32.5 1.5t-42 5t-47.5 9.5t-48 14q3 31 13 61t22 59q35 -12 66 -19t66 -7q45 0 75 10t49 26.5 t27 38t8 44.5q0 51 -33 79t-107 28q-29 0 -56.5 -5.5t-55.5 -19.5l-15 12z" />
<glyph unicode="6" d="M453 725q5 -16 8.5 -32t3.5 -33q0 -25 -9 -53q-56 -2 -99 -20t-73.5 -47.5t-50 -67.5t-26.5 -80q9 13 21.5 25.5t30 23t40.5 17t53 6.5q43 0 82 -14.5t68.5 -43t47 -72.5t17.5 -102q0 -60 -21.5 -105.5t-56.5 -76.5t-81 -46.5t-94 -15.5q-125 0 -191 73t-66 219 q0 91 24 170.5t73 139t123.5 95t175.5 40.5zM311 104q46 0 77 31t31 94q0 66 -29.5 94.5t-74.5 28.5q-50 0 -79.5 -29.5t-29.5 -88.5q0 -63 28.5 -96.5t76.5 -33.5z" />
<glyph unicode="7" d="M370 530h-301q-6 30 -6 60q0 32 6 62h492l6 -12l-294 -714q-36 8 -68.5 21t-63.5 36z" />
<glyph unicode="8" d="M169 381q-39 23 -64.5 63t-25.5 91q0 42 17 76t46.5 58t70 37t87.5 13t87.5 -13t70 -37t46.5 -58t17 -76q0 -51 -26 -90.5t-65 -63.5q22 -11 44.5 -27.5t39.5 -40t28 -54t11 -69.5q0 -54 -21.5 -92.5t-57 -63t-81 -35.5t-93.5 -11t-93.5 11t-81 35.5t-57 63t-21.5 92.5 q0 38 10.5 68.5t28 54t39 40.5t44.5 28zM299 326q-48 -16 -78 -46.5t-30 -77.5t28.5 -73t80.5 -26q54 0 81.5 26t27.5 73q0 48 -31 78t-79 46zM300 425q40 14 64.5 38.5t24.5 66.5q0 35 -22.5 56.5t-66.5 21.5t-66 -21.5t-22 -56.5q0 -42 24.5 -66.5t63.5 -38.5z" />
<glyph unicode="9" d="M160 -75q-5 16 -8.5 32t-3.5 33q0 24 9 53q55 2 98.5 20t74 47.5t49.5 67.5t27 80q-9 -13 -21.5 -25.5t-30 -23t-40.5 -17t-53 -6.5q-43 0 -82 14.5t-68.5 43t-47 72t-17.5 102.5q0 60 21.5 105.5t56.5 76.5t81 46.5t94 15.5q125 0 191 -73t66 -219q0 -91 -24 -170.5 t-73 -139t-123.5 -95.5t-175.5 -40zM298 298q50 0 79.5 29.5t29.5 88.5q0 63 -28.5 96.5t-76.5 33.5q-46 0 -77 -31t-31 -94q0 -66 29.5 -94.5t74.5 -28.5z" />
<glyph unicode=":" horiz-adv-x="289" d="M71 0q-6 37 -6 73t6 74q37 6 73 6t74 -6q6 -38 6 -73q0 -37 -6 -74q-38 -6 -73 -6q-37 0 -74 6zM71 370q-6 37 -6 73t6 74q37 6 73 6t74 -6q6 -38 6 -73q0 -37 -6 -74q-38 -6 -73 -6q-37 0 -74 6z" />
<glyph unicode=";" horiz-adv-x="310" d="M94 144q17 4 34 5.5t33 1.5t35 -1.5t36 -5.5l-73 -256q-17 -4 -34 -5t-33 -1t-31.5 1t-32.5 5zM92 370q-6 37 -6 73t6 74q37 6 73 6t74 -6q6 -38 6 -73q0 -37 -6 -74q-38 -6 -73 -6q-37 0 -74 6z" />
<glyph unicode="&#x3c;" d="M509 577q6 -39 6 -63q0 -17 -1 -34t-4 -32l-302 -109l302 -103q3 -15 4 -31.5t1 -33.5q0 -14 -1 -32t-5 -38l-414 164q-9 40 -9 78q0 35 9 71z" />
<glyph unicode="=" d="M511 306q6 -30 6 -60q0 -31 -6 -61h-421q-6 30 -6 60q0 31 6 61h421zM511 511q6 -30 6 -60q0 -31 -6 -61h-421q-6 30 -6 60q0 31 6 61h421z" />
<glyph unicode="&#x3e;" d="M392 339l-302 103q-3 15 -4 31.5t-1 33.5q0 14 1 32t5 38l414 -164q9 -41 9 -78q0 -35 -9 -71l-414 -163q-6 39 -6 63q0 17 1 34t4 32z" />
<glyph unicode="?" horiz-adv-x="493" d="M175 398q23 4 48 11.5t46 20.5t34.5 32.5t13.5 48.5q0 43 -31 65.5t-82 22.5q-21 0 -37.5 -1.5t-30.5 -5t-28.5 -8t-30.5 -10.5q-14 26 -23 54t-11 58q26 9 48 15.5t43 10.5t42 5.5t45 1.5q120 0 181 -54.5t61 -149.5q0 -47 -18 -81t-43.5 -57.5t-52.5 -38t-44 -21.5v-91 q-35 -6 -67 -6q-33 0 -63 6v172zM165 0q-6 37 -6 73t6 74q37 6 73 6t74 -6q6 -38 6 -73q0 -37 -6 -74q-38 -6 -73 -6q-37 0 -74 6z" />
<glyph unicode="@" horiz-adv-x="1005" d="M657 159q10 -8 33 -8q37 0 66 22t48.5 57t29.5 77.5t10 83.5q0 115 -70 176t-197 61q-98 0 -174.5 -33.5t-129 -90t-80 -130t-27.5 -152.5q0 -72 21.5 -123t58.5 -83.5t86.5 -47.5t105.5 -15q52 0 96 6.5t80 20.5q9 -22 17 -45.5t14 -46.5q-18 -9 -43 -16.5t-54 -12 t-61.5 -7t-64.5 -2.5q-77 0 -146 22t-121 67.5t-82 114.5t-30 164q0 89 32.5 180t99.5 164.5t170.5 120t245.5 46.5q76 0 143.5 -20.5t118 -62.5t80 -105.5t29.5 -149.5q0 -62 -20.5 -122.5t-57.5 -108.5t-89.5 -78t-116.5 -31q-73 0 -111 38q-30 -15 -63 -26.5t-83 -11.5 q-32 0 -60 9.5t-49 30t-33.5 51.5t-12.5 74q0 68 22.5 124.5t61.5 97.5t90.5 64t110.5 23q45 0 88.5 -6.5t81.5 -20.5zM579 413q-11 3 -20.5 4t-20.5 1q-33 0 -58.5 -15t-43.5 -39.5t-27.5 -57t-9.5 -67.5q0 -45 19.5 -65t51.5 -20q20 0 34.5 3t31.5 8z" />
<glyph unicode="A" horiz-adv-x="636" d="M237 719q21 3 40 4.5t42 1.5q20 0 39 -1.5t42 -4.5l225 -719q-41 -6 -80 -6q-38 0 -74 6l-40 144h-238l-41 -144q-36 -6 -69 -6q-37 0 -73 6zM397 265l-83 302l-87 -302h170z" />
<glyph unicode="B" horiz-adv-x="605" d="M72 720q32 5 74 8t105 3q55 0 104 -9t85.5 -30.5t57.5 -57.5t21 -90q0 -32 -9.5 -59.5t-25.5 -48t-36 -34t-41 -16.5q23 -3 51 -14t52 -32.5t40 -55.5t16 -82q0 -65 -24.5 -106.5t-66 -65.5t-96 -33t-114.5 -9q-46 0 -91 2.5t-102 9.5v720zM217 110q14 -2 32.5 -3 t33.5 -1q21 0 44 4t43 15.5t33 32t13 53.5q0 31 -10 51.5t-28.5 33t-44 17.5t-56.5 5h-60v-208zM261 428q25 0 46.5 4.5t37.5 16t25 31t9 49.5q0 29 -10.5 47.5t-27 29t-37 14t-40.5 3.5q-28 0 -47 -3v-192h44z" />
<glyph unicode="C" horiz-adv-x="618" d="M545 136q13 -28 21.5 -57.5t12.5 -59.5q-52 -19 -93.5 -25t-89.5 -6q-85 0 -149 27.5t-107.5 77t-65.5 117.5t-22 148t23 148.5t66.5 118.5t107 78t144.5 28q48 0 88.5 -6t87.5 -25q-2 -30 -12 -58.5t-22 -57.5q-35 12 -62 17t-64 5q-96 0 -147.5 -62.5t-51.5 -185.5 q0 -244 207 -244q37 0 65 5t63 17z" />
<glyph unicode="D" horiz-adv-x="700" d="M73 719q42 5 88 8.5t102 3.5q189 0 287.5 -94t98.5 -282q0 -189 -100 -278t-297 -89q-51 0 -94 3.5t-85 8.5v719zM220 116q9 -1 23 -2t34 -1q46 0 85.5 10.5t68.5 38.5t46 75t17 121q0 72 -17 120t-46 76t-66.5 39.5t-79.5 11.5q-14 0 -32.5 -0.5t-32.5 -2.5v-486z" />
<glyph unicode="E" horiz-adv-x="531" d="M70 719h408q6 -30 6 -61q0 -33 -6 -63h-262v-156h208q6 -32 6 -62q0 -32 -6 -63h-208v-190h269q6 -30 6 -61q0 -33 -6 -63h-415v719z" />
<glyph unicode="F" horiz-adv-x="507" d="M70 719h408q6 -30 6 -61q0 -33 -6 -63h-262v-169h208q6 -32 6 -62q0 -32 -6 -63h-208v-301q-38 -6 -72 -6q-37 0 -74 6v719z" />
<glyph unicode="G" horiz-adv-x="668" d="M465 373q37 6 72 6t73 -6v-353q-52 -19 -108.5 -25.5t-98.5 -6.5q-88 0 -154 27.5t-110 77t-66 117.5t-22 148t23 148.5t66.5 118.5t107 78t144.5 28q48 0 89.5 -6t86.5 -25q-2 -30 -12 -58.5t-22 -57.5q-35 12 -62 17t-64 5q-96 0 -147.5 -62.5t-51.5 -185.5t51 -183.5 t150 -60.5q17 0 30.5 2t24.5 4v253z" />
<glyph unicode="H" horiz-adv-x="675" d="M70 719q37 6 73 6t74 -6v-282h241v282q37 6 73 6t74 -6v-719q-38 -6 -73 -6q-37 0 -74 6v311h-241v-311q-38 -6 -73 -6q-37 0 -74 6v719z" />
<glyph unicode="I" horiz-adv-x="287" d="M70 719q37 6 73 6t74 -6v-719q-38 -6 -73 -6q-37 0 -74 6v719z" />
<glyph unicode="J" horiz-adv-x="411" d="M200 595h-119q-3 14 -4.5 30.5t-1.5 32.5q0 32 6 61h265v-528q0 -55 -17.5 -93.5t-48 -63t-72 -35.5t-90.5 -11q-17 0 -42.5 3t-48.5 9q-1 7 -1.5 14t-0.5 15q0 46 17 92q11 -2 24 -5t27 -3q17 0 36 2t34.5 12t26 29.5t10.5 55.5v383z" />
<glyph unicode="K" horiz-adv-x="619" d="M237 362l195 357q23 4 42.5 5t35.5 1q17 0 38 -2t44 -4l-197 -347l214 -372q-23 -2 -44.5 -4t-38.5 -2q-16 0 -35.5 1t-43.5 5zM70 720q19 3 37 4t37 1q17 0 35 -1t37 -4v-721q-19 -3 -37 -4t-36 -1t-36 1t-37 4v721z" />
<glyph unicode="L" horiz-adv-x="493" d="M70 719q37 6 71 6q35 0 73 -6v-593h249q3 -17 4 -32.5t1 -29.5q0 -16 -1 -31.5t-4 -32.5h-393v719z" />
<glyph unicode="M" horiz-adv-x="817" d="M90 719q40 6 77 6q39 0 77 -6l165 -412l170 412q31 6 69 6t73 -6l34 -719q-38 -6 -72 -6t-67 6l-18 488l-146 -338q-14 -2 -29 -3.5t-30 -1.5q-13 0 -26 1t-27 4l-136 345l-14 -495q-32 -6 -62 -6q-32 0 -66 6z" />
<glyph unicode="N" horiz-adv-x="668" d="M70 719q31 6 59 6q30 0 62 -6l278 -458v458q36 6 69 6q31 0 60 -6v-719q-32 -6 -58 -6q-28 0 -61 6l-280 457v-457q-32 -6 -65 -6t-64 6v719z" />
<glyph unicode="O" horiz-adv-x="726" d="M363 -12q-81 0 -140 28t-97 77.5t-56.5 117t-18.5 147.5t18.5 148.5t56.5 118.5t97 78t140 28t140 -28t97 -78t56.5 -118.5t18.5 -148.5t-18.5 -147.5t-56.5 -117t-97 -77.5t-140 -28zM363 110q155 0 155 248q0 124 -37.5 186t-116.5 62q-157 0 -157 -248t156 -248z" />
<glyph unicode="P" horiz-adv-x="583" d="M70 722q46 4 93 6.5t95 2.5q50 0 101.5 -10t93 -37.5t67.5 -76.5t26 -127t-26 -126.5t-67 -76.5t-91.5 -38t-99.5 -10q-13 0 -24.5 0.5t-21.5 1.5v-231q-19 -3 -37 -4t-35 -1q-16 0 -35 1t-39 4v722zM216 352q12 -2 22.5 -2h25.5q25 0 49 6.5t42.5 21.5t29.5 39.5 t11 60.5q0 37 -11 62.5t-29.5 41t-42.5 22t-49 6.5q-11 0 -20.5 -0.5t-27.5 -2.5v-255z" />
<glyph unicode="Q" horiz-adv-x="726" d="M693 -56q-2 -29 -7 -59.5t-16 -57.5l-248 40q3 21 5 35.5t5 27t7 25t9 27.5zM363 -12q-81 0 -140 28t-97 77.5t-56.5 117t-18.5 147.5t18.5 148.5t56.5 118.5t97 78t140 28t140 -28t97 -78t56.5 -118.5t18.5 -148.5t-18.5 -147.5t-56.5 -117t-97 -77.5t-140 -28zM363 110 q155 0 155 248q0 124 -37.5 186t-116.5 62q-157 0 -157 -248t156 -248z" />
<glyph unicode="R" horiz-adv-x="611" d="M77 719q44 5 82.5 8.5t85.5 3.5q55 0 108.5 -10t96.5 -35.5t69.5 -69t26.5 -110.5q0 -40 -10 -70.5t-25.5 -53.5t-33.5 -39.5t-34 -26.5l-17 -11l175 -304q-20 -2 -42 -4t-45 -2q-38 0 -75 6l-188 334l24 12q14 7 34 18t38.5 27.5t31.5 40t13 55.5q0 63 -36 92.5 t-93 29.5q-22 0 -40 -3v-607q-18 -2 -36 -3.5t-35 -1.5t-36 1t-39 4v719z" />
<glyph unicode="S" horiz-adv-x="550" d="M201 333q-34 13 -61 28.5t-46 37t-29.5 51.5t-10.5 72q0 51 17.5 90t49.5 65.5t77 40t101 13.5q51 0 95.5 -9t93.5 -26q-6 -58 -32 -114q-15 6 -30.5 12t-33 10t-39.5 6.5t-50 2.5q-17 0 -34.5 -3t-31.5 -11t-23 -23.5t-9 -40.5q0 -20 7 -33.5t19 -23t27 -16t30 -12.5 l60 -23q38 -15 69 -31t52.5 -39.5t33.5 -57t12 -82.5q0 -51 -18.5 -93t-53.5 -72t-86.5 -47t-118.5 -17q-33 0 -59 2t-49.5 6.5t-46.5 11.5t-48 17q3 29 11 60.5t19 63.5q42 -17 79 -25.5t79 -8.5q63 0 99 23.5t36 71.5q0 24 -8.5 40t-22 27t-30.5 18.5t-35 14.5z" />
<glyph unicode="T" horiz-adv-x="567" d="M210 595h-179q-6 30 -6 63q0 31 6 61h505q6 -30 6 -61q0 -33 -6 -63h-179v-595q-18 -2 -36 -3.5t-35 -1.5t-36.5 1t-39.5 4v595z" />
<glyph unicode="U" horiz-adv-x="671" d="M66 719q19 3 37 4t37 1q17 0 35 -1t37 -4v-373q0 -61 4.5 -104.5t18 -72t38 -42t63.5 -13.5t63 13.5t37.5 42t18 72t4.5 104.5v373q20 3 38 4t35 1q18 0 36.5 -1t37.5 -4v-404q0 -73 -12 -133.5t-43 -103.5t-83 -66.5t-132 -23.5t-132 23.5t-83 66.5t-43 103.5t-12 133.5 v404z" />
<glyph unicode="V" horiz-adv-x="645" d="M10 719q17 2 39 4t39 2q38 0 80 -6l157 -567l159 567q20 3 38.5 4t37.5 1q18 0 36.5 -1t38.5 -4l-232 -719q-21 -3 -40.5 -4.5t-41.5 -1.5q-20 0 -39 1.5t-42 4.5z" />
<glyph unicode="W" horiz-adv-x="921" d="M16 719q36 6 82 6q18 0 36.5 -1t36.5 -5l103 -541l124 541q20 3 37 4.5t35 1.5q30 0 65 -6l129 -555l103 555q31 6 64 6q20 0 39 -2t37 -4l-173 -719q-36 -6 -75 -6q-38 0 -83 6l-115 479l-124 -479q-24 -2 -42.5 -4t-40.5 -2q-31 0 -67 6z" />
<glyph unicode="X" horiz-adv-x="633" d="M321 373l112 344q39 6 75 6q19 0 38.5 -1t39.5 -4l-127 -342l156 -376q-23 -3 -40.5 -4.5t-35.5 -1.5q-17 0 -34.5 1.5t-42.5 5.5zM176 376l-129 342q20 3 39.5 4t38.5 1q36 0 75 -6l114 -344l-143 -372q-25 -4 -42.5 -5.5t-34.5 -1.5q-18 0 -35.5 1.5t-40.5 4.5z" />
<glyph unicode="Y" horiz-adv-x="615" d="M234 257l-224 462q42 6 84 6q38 0 76 -6l142 -326l140 326q37 6 76 6q36 0 77 -6l-224 -462v-258q-20 -3 -38 -4t-36 -1q-17 0 -35.5 1t-37.5 4v258z" />
<glyph unicode="Z" horiz-adv-x="580" d="M38 10l302 585h-276q-6 30 -6 61q0 33 6 63h482l8 -12l-299 -583h284q6 -30 6 -61q0 -33 -6 -63h-494z" />
<glyph unicode="[" horiz-adv-x="344" d="M50 776h238q3 -15 4.5 -28t1.5 -28q0 -28 -6 -58h-100v-716h100q6 -30 6 -58q0 -15 -1.5 -28t-4.5 -28h-238v944z" />
<glyph unicode="\" horiz-adv-x="414" d="M15 719q36 6 70 6t72 -6l243 -719q-36 -6 -70 -6q-35 0 -71 6z" />
<glyph unicode="]" horiz-adv-x="344" d="M156 -54v716h-100q-6 30 -6 58q0 15 1.5 28t4.5 28h238v-944h-238q-3 15 -4.5 28t-1.5 28q0 28 6 58h100z" />
<glyph unicode="^" horiz-adv-x="549" d="M208 719q33 6 67 6q32 0 68 -6l156 -356q-20 -5 -37 -6t-30 -1q-17 0 -33 1t-30 5l-98 228l-91 -228q-15 -3 -31.5 -4.5t-31.5 -1.5q-13 0 -29 1t-38 6z" />
<glyph unicode="_" horiz-adv-x="504" d="M497 -2q3 -14 4 -26t1 -25q0 -11 -1 -22t-4 -25h-490q-3 14 -4 26t-1 25q0 11 1 22t4 25h490z" />
<glyph unicode="`" horiz-adv-x="500" d="M108 719q20 3 38.5 4.5t44.5 1.5q49 0 90 -6l112 -123q-33 -6 -65 -6q-20 0 -38 2t-31 4z" />
<glyph unicode="a" horiz-adv-x="522" d="M328 237q-12 2 -26 3.5t-25 1.5q-49 0 -77.5 -17.5t-28.5 -56.5q0 -26 11 -40t26.5 -20.5t33 -8t30.5 -1.5q15 0 30 2.5t26 4.5v132zM328 340q0 24 -8 39t-22 23.5t-34.5 11.5t-45.5 3q-54 0 -115 -21q-14 26 -21 49t-7 55q44 15 88 22t82 7q104 0 162.5 -50t58.5 -160 v-300q-35 -11 -85 -21t-113 -10q-51 0 -93.5 9t-73 30t-47 54t-16.5 81t20.5 80.5t53 52t72.5 28t80 8.5q29 0 64 -3v12z" />
<glyph unicode="b" horiz-adv-x="590" d="M68 731q36 6 70 6q35 0 71 -6v-264q15 27 50 44.5t80 17.5t83.5 -16t66.5 -48.5t44 -81.5t16 -116q0 -65 -20 -116.5t-58 -87.5t-93 -55.5t-124 -19.5q-22 0 -46.5 2t-49.5 5.5t-48 9t-42 12.5v714zM209 112q12 -4 25.5 -5t27.5 -1q65 0 102 38t37 119q0 72 -23 109.5 t-78 37.5q-40 0 -65.5 -26.5t-25.5 -83.5v-188z" />
<glyph unicode="c" horiz-adv-x="475" d="M417 122q12 -20 20 -46.5t8 -62.5q-40 -16 -75 -20.5t-73 -4.5q-65 0 -113 20.5t-79.5 56.5t-47.5 85.5t-16 107.5q0 57 15.5 106t47 86t78.5 58t109 21q22 0 40.5 -1t35.5 -4t34 -8t38 -13q0 -23 -6 -51.5t-19 -54.5q-30 10 -52.5 13.5t-51.5 3.5q-62 0 -93.5 -40.5 t-31.5 -115.5q0 -81 34 -118t92 -37q15 0 27.5 0.5t24.5 2.5t24.5 6t29.5 10z" />
<glyph unicode="d" horiz-adv-x="588" d="M380 731q18 3 35.5 4t34.5 1t35 -1t36 -4v-714q-47 -14 -95.5 -21.5t-117.5 -7.5q-53 0 -101.5 14.5t-85.5 46t-58.5 81.5t-21.5 122q0 57 18.5 107.5t53 87.5t83.5 58.5t109 21.5q18 0 37.5 -1.5t37.5 -6.5v212zM380 410q-20 5 -32.5 6.5t-31.5 1.5q-33 0 -57.5 -13.5 t-40.5 -36t-23.5 -53t-7.5 -63.5q0 -41 10 -69.5t27.5 -45.5t41.5 -24.5t52 -7.5q17 0 31 1.5t31 6.5v297z" />
<glyph unicode="e" horiz-adv-x="562" d="M183 215q4 -60 42 -87t100 -27q34 0 69.5 6.5t67.5 18.5q11 -20 19 -48t9 -60q-78 -30 -176 -30q-72 0 -123.5 20t-84 55.5t-48 84.5t-15.5 107q0 57 16 107t47.5 87t78 58.5t108.5 21.5q54 0 96 -19t71.5 -52t44.5 -78.5t15 -97.5q0 -19 -1.5 -37.5t-3.5 -29.5h-332z M386 314q-2 48 -26.5 77.5t-68.5 29.5q-50 0 -76 -28t-31 -79h202z" />
<glyph unicode="f" horiz-adv-x="396" d="M104 409h-82q-3 16 -4 29t-1 27q0 13 1 25t4 27h82v25q0 48 14.5 85.5t41.5 63t64.5 39t82.5 13.5q30 0 50.5 -2.5t44.5 -9.5q-2 -33 -6.5 -59.5t-14.5 -52.5q-11 2 -23 4.5t-32 2.5q-35 0 -57 -16.5t-24 -70.5v-22h120q3 -16 4 -29t1 -27q0 -13 -1 -25t-4 -27h-120v-409 q-36 -6 -70 -6q-35 0 -71 6v409z" />
<glyph unicode="g" horiz-adv-x="566" d="M360 86q91 -2 134 -40.5t43 -109.5q0 -42 -22 -76.5t-60 -58.5t-90 -37t-112 -13t-102 9.5t-68.5 26.5t-38 42t-11.5 55q0 45 21.5 74t57.5 51q-23 14 -36.5 34.5t-13.5 52.5q0 38 16 62t47 46q-35 25 -54 61t-19 80q0 39 15 72.5t43.5 58t69.5 38.5t92 14q50 0 92 -15.5 t70 -39.5q19 25 47 37.5t76 12.5q2 -13 3.5 -25.5t1.5 -26.5q0 -16 -1 -32t-4 -33h-81q5 -10 9 -24t4 -37q0 -39 -14.5 -72.5t-42.5 -57.5t-68.5 -38t-91.5 -14q-43 0 -77 9q-17 -11 -21 -23.5t-4 -23.5q0 -16 10.5 -26t42.5 -11zM232 -18q-22 1 -36.5 -5t-23 -15.5t-12 -21 t-3.5 -22.5q0 -38 28.5 -51.5t76.5 -13.5q63 0 101.5 20t38.5 54q0 10 -2.5 19t-9.5 16.5t-19.5 12.5t-33.5 5zM273 255q42 0 60.5 24t18.5 66t-18.5 66.5t-60.5 24.5q-43 0 -62 -24.5t-19 -66.5t19 -66t62 -24z" />
<glyph unicode="h" horiz-adv-x="586" d="M68 731q17 3 35 4t35 1t35 -1t36 -4v-275q7 9 18.5 21.5t28.5 24t41 19.5t55 8q86 0 130.5 -48t44.5 -151v-331q-18 -3 -36 -4t-35 -1t-35 1t-36 4v293q0 54 -17 83t-58 29q-17 0 -35 -5t-32.5 -19.5t-24 -40.5t-9.5 -68v-272q-18 -3 -36 -4t-35 -1t-34.5 1t-35.5 4v732z " />
<glyph unicode="i" horiz-adv-x="307" d="M98 409h-67q-3 13 -4.5 27.5t-1.5 27.5q0 27 6 53h206v-517q-36 -6 -70 -6q-33 0 -69 6v409zM77 604q-6 34 -6 67q0 32 6 67q17 3 36.5 4.5t35.5 1.5q17 0 37 -1.5t37 -4.5q3 -17 4 -33.5t1 -33.5q0 -16 -1 -33t-4 -34q-17 -3 -36.5 -4t-36.5 -1q-16 0 -36 1t-37 4z" />
<glyph unicode="j" horiz-adv-x="307" d="M99 409h-68q-3 13 -4.5 27.5t-1.5 27.5q0 27 6 53h206v-528q0 -96 -48 -138.5t-139 -42.5q-25 0 -51 3t-48 8q0 29 4 54.5t14 48.5q10 -2 24 -4t28 -2q16 0 30.5 4t25 14.5t16.5 29.5t6 50v395zM77 607q-4 21 -5 35t-1 29q0 16 1 30t5 34q19 5 38.5 7t34.5 2q14 0 34 -2 t38 -7q4 -20 5 -34t1 -30q0 -15 -1 -29t-5 -35q-18 -5 -38 -6.5t-34 -1.5q-15 0 -34.5 1.5t-38.5 6.5z" />
<glyph unicode="k" horiz-adv-x="535" d="M61 731q34 6 70 6t71 -6v-731q-35 -6 -71 -6t-70 6v731zM222 271l128 246q39 6 79 6q38 0 74 -6l-132 -239l154 -278q-41 -6 -79 -6q-35 0 -74 6z" />
<glyph unicode="l" horiz-adv-x="324" d="M66 731q36 6 71 6q34 0 70 -6v-525q0 -31 3.5 -50t11 -29.5t19.5 -14.5t30 -4q8 0 17.5 1t18.5 3q11 -41 11 -80v-14.5t-2 -14.5q-16 -5 -38.5 -7t-41.5 -2q-77 0 -123.5 42.5t-46.5 138.5v556z" />
<glyph unicode="m" horiz-adv-x="879" d="M70 517q14 3 28 4.5t31 1.5t30 -1.5t27 -4.5q3 -5 5.5 -14.5t4.5 -20t3.5 -20.5t2.5 -17q8 15 21 30t31 27t40.5 19.5t50.5 7.5q121 0 155 -92q20 37 56.5 64.5t92.5 27.5q88 0 129.5 -48.5t41.5 -151.5v-329q-36 -6 -71 -6t-71 6v292q0 54 -13.5 83t-54.5 29 q-17 0 -33.5 -5t-30 -18.5t-22 -38t-8.5 -63.5v-279q-36 -6 -71 -6t-71 6v292q0 54 -13.5 83t-54.5 29q-17 0 -34 -5t-30.5 -19.5t-21.5 -40.5t-8 -68v-271q-36 -6 -71 -6t-71 6v517z" />
<glyph unicode="n" horiz-adv-x="587" d="M70 517q14 3 28 4.5t31 1.5t30 -1.5t27 -4.5q3 -5 5.5 -14.5t4.5 -20t3.5 -20.5t2.5 -17q10 15 24 30t32.5 27t41.5 19.5t51 7.5q88 0 132.5 -48t44.5 -151v-330q-36 -6 -71 -6t-71 6v292q0 54 -16.5 83t-57.5 29q-17 0 -35 -5t-32.5 -19.5t-23.5 -40.5t-9 -68v-271 q-36 -6 -71 -6t-71 6v517z" />
<glyph unicode="o" horiz-adv-x="580" d="M289 -12q-63 0 -109.5 20.5t-77 57t-46 85.5t-15.5 106t15.5 107t46 86.5t77 57.5t109.5 21t110 -21t78 -57.5t46 -86.5t15 -107t-15 -106t-46 -85.5t-78 -57t-110 -20.5zM289 96q56 0 80.5 41.5t24.5 119.5t-24.5 119.5t-80.5 41.5q-55 0 -79.5 -41.5t-24.5 -119.5 t24.5 -119.5t79.5 -41.5z" />
<glyph unicode="p" horiz-adv-x="591" d="M67 518q14 3 27.5 4t30.5 1q28 0 57 -6q3 -5 5.5 -14.5t5 -20.5t4 -21.5l2.5 -17.5q9 16 22 31.5t31.5 27.5t41.5 19.5t51 7.5q43 0 80.5 -16t65.5 -48.5t43.5 -81.5t15.5 -116q0 -65 -19 -116.5t-55 -87.5t-88 -55.5t-118 -19.5q-17 0 -33.5 1.5t-27.5 3.5v-230 q-19 -3 -36.5 -4t-34.5 -1t-34.5 1t-36.5 4v755zM209 110q27 -8 62 -8q62 0 95 40t33 121q0 31 -5 57.5t-17 45.5t-30.5 30t-45.5 11q-25 0 -42.5 -9.5t-28.5 -26t-16 -38.5t-5 -47v-176z" />
<glyph unicode="q" horiz-adv-x="587" d="M378 -4q-17 -2 -35 -4t-41 -2q-51 0 -98 13.5t-83.5 44t-58 79.5t-21.5 121q0 57 19.5 108.5t56.5 89.5t91 60.5t123 22.5q56 0 100.5 -6.5t88.5 -16.5v-743q-18 -3 -35.5 -4t-34.5 -1t-35 1t-36 4zM378 407q-23 4 -31 5t-21 1q-68 0 -102.5 -46t-34.5 -119 q0 -41 9.5 -68.5t26 -44t40 -23.5t51.5 -7q17 0 31 1.5t31 6.5v294z" />
<glyph unicode="r" horiz-adv-x="402" d="M70 517q15 3 28.5 4.5t29.5 1.5q15 0 29.5 -2t28.5 -5q3 -5 5.5 -14.5t4.5 -20t3.5 -21l2.5 -17.5q22 31 54 55.5t80 24.5q10 0 23 -1t19 -3q2 -10 3 -23t1 -27q0 -17 -1.5 -37t-5.5 -38q-11 2 -24.5 2h-16.5q-17 0 -38 -3.5t-40 -18.5t-31.5 -45t-12.5 -84v-246 q-18 -3 -36 -4t-35 -1t-34.5 1t-36.5 4v518z" />
<glyph unicode="s" horiz-adv-x="460" d="M170 225q-56 16 -87.5 47.5t-31.5 94.5q0 76 54.5 119t148.5 43q39 0 77 -7t77 -21q-2 -26 -10 -54t-19 -49q-24 10 -53 17.5t-61 7.5q-34 0 -53 -10.5t-19 -33.5q0 -22 13.5 -31t38.5 -17l57 -17q28 -8 50.5 -19.5t38.5 -28.5t25 -42t9 -61q0 -37 -15.5 -69t-45 -55.5 t-71.5 -37t-95 -13.5q-24 0 -44 1.5t-38.5 5t-36.5 8.5t-39 13q2 27 9.5 54.5t19.5 53.5q33 -13 62.5 -19.5t61.5 -6.5q14 0 30.5 2.5t30.5 9t23.5 17t9.5 27.5q0 24 -14.5 34.5t-40.5 18.5z" />
<glyph unicode="t" horiz-adv-x="383" d="M84 409h-65l-5 20l187 239h23v-151h121q3 -15 4 -27t1 -25q0 -14 -1 -27t-4 -29h-121v-203q0 -31 5 -50t14.5 -30t23.5 -15t33 -4q15 0 29.5 2.5t25.5 4.5q7 -19 10 -39.5t3 -36.5q0 -11 -0.5 -18.5t-1.5 -14.5q-46 -11 -95 -11q-91 0 -139 42.5t-48 138.5v234z" />
<glyph unicode="u" horiz-adv-x="572" d="M61 517q36 6 71 6t71 -6v-274q0 -41 6.5 -67.5t20 -42t33.5 -22t47 -6.5q37 0 62 7v405q36 6 70 6q35 0 71 -6v-497q-32 -11 -84.5 -21.5t-109.5 -10.5q-51 0 -98 8t-82.5 34t-56.5 76t-21 133v278z" />
<glyph unicode="v" horiz-adv-x="544" d="M5 516q24 5 44.5 6t35.5 1q20 0 40 -1t37 -5l113 -385l111 385q17 3 36 4.5t38 1.5q15 0 34.5 -1t44.5 -6l-196 -516q-19 -3 -40 -4t-35 -1q-15 0 -34 1t-36 5z" />
<glyph unicode="w" horiz-adv-x="806" d="M7 516q23 5 43.5 6t34.5 1q20 0 39 -1t36 -5l83 -382l96 382q31 6 68 6q26 -1 43 -2t30 -4l94 -375l82 375q17 3 32 4.5t34 1.5q14 0 33.5 -1t43.5 -6l-161 -516q-18 -3 -38.5 -4t-34.5 -1q-15 0 -33.5 1t-35.5 5l-94 342l-97 -343q-19 -3 -39.5 -4t-34.5 -1t-32.5 1 t-35.5 5z" />
<glyph unicode="x" horiz-adv-x="534" d="M133 267l-99 250q33 6 73 6q38 0 77 -6l79 -253l-103 -264q-36 -6 -71 -6t-74 6zM270 264l80 253q37 6 77 6q37 0 73 -6l-100 -250l119 -267q-39 -6 -74 -6t-71 6z" />
<glyph unicode="y" horiz-adv-x="542" d="M10 517q23 5 40.5 5.5t32.5 0.5q20 0 41 -1t38 -5l108 -451l122 451q33 6 68 6q15 0 32 -0.5t42 -5.5l-193 -639q-12 -38 -28.5 -63t-37.5 -39t-47 -19.5t-56 -5.5q-28 0 -50.5 3.5t-44.5 9.5q-1 5 -1 8.5v7.5q0 24 5.5 45.5t13.5 41.5q9 -3 24 -5.5t30 -2.5q12 0 24 1.5 t23.5 9t21.5 23.5t18 45l17 62q-11 -1 -24.5 -1.5t-27.5 -0.5h-21t-18 2z" />
<glyph unicode="z" horiz-adv-x="493" d="M27 12l233 396h-198q-3 15 -4 29t-1 28q0 13 1 25.5t4 26.5h407l5 -12l-237 -396h220q3 -15 4 -29t1 -28q0 -13 -1 -25.5t-4 -26.5h-422z" />
<glyph unicode="{" horiz-adv-x="437" d="M144 142q-1 32 -5.5 56t-15.5 42t-28.5 32.5t-44.5 26.5v26q27 12 44.5 26.5t28.5 32.5t15.5 42t5.5 56l3 91q1 52 10.5 92t32 67.5t61 41.5t97.5 14h16t17 -1q6 -29 6 -55q0 -27 -6 -55h-17q-29 0 -45.5 -7.5t-24.5 -23t-10.5 -40t-2.5 -58.5q0 -60 -4.5 -100.5 t-14.5 -67t-26 -42.5t-39 -26q23 -11 39 -26.5t26 -42t14.5 -67t4.5 -101.5q0 -34 2.5 -58.5t10.5 -40t24.5 -23t45.5 -7.5h17q6 -29 6 -55q0 -27 -6 -55q-9 -1 -17 -1h-16q-59 0 -97.5 14t-61 41.5t-32 67.5t-10.5 92z" />
<glyph unicode="|" horiz-adv-x="341" d="M102 776q34 6 68 6t69 -6v-944q-35 -6 -68 -6q-35 0 -69 6v944z" />
<glyph unicode="}" horiz-adv-x="437" d="M73 -54q28 0 45 7.5t25 23t10.5 40t2.5 58.5q0 61 4.5 101.5t14.5 67t26 42t39 26.5q-23 10 -39 26t-26 42.5t-14.5 67t-4.5 100.5q0 34 -2.5 58.5t-10.5 40t-25 23t-45 7.5h-17q-6 28 -6 55q0 26 6 55q9 1 17 1h16q59 0 97.5 -14t61 -41.5t31.5 -67.5t11 -92l3 -91 q1 -32 5.5 -56t15.5 -42t28.5 -32.5t44.5 -26.5v-26q-27 -12 -44.5 -26.5t-28.5 -32.5t-15.5 -42t-5.5 -56l-3 -92q-2 -52 -11 -92t-31.5 -67.5t-61 -41.5t-97.5 -14h-16t-17 1q-6 28 -6 55q0 26 6 55h17z" />
<glyph unicode="~" horiz-adv-x="476" d="M12 423q20 24 55 41.5t82 17.5q23 0 44.5 -6.5t43 -14t43.5 -13.5t46 -6q22 0 40.5 6.5t44.5 29.5q20 -20 33 -43.5t21 -47.5q-20 -24 -55.5 -40.5t-82.5 -16.5q-23 0 -45.5 6t-44.5 13.5t-43.5 14t-43.5 6.5q-24 0 -41.5 -6t-43.5 -29q-18 20 -32.5 42t-20.5 46z" />
<glyph unicode="&#xa1;" horiz-adv-x="299" d="M82 287q34 6 67 6t68 -6l10 -489q-39 -6 -77 -6q-39 0 -78 6zM76 370q-6 37 -6 73t6 74q37 6 73 6t74 -6q6 -38 6 -73q0 -37 -6 -74q-38 -6 -73 -6q-37 0 -74 6z" />
<glyph unicode="&#xa2;" d="M316 -9q-53 7 -93 29.5t-66 58t-39 81t-13 98.5q0 52 13.5 98t39.5 81.5t65.5 59t92.5 29.5v109q21 6 43 6q21 0 44 -6v-108q25 -2 48 -7.5t52 -16.5q0 -31 -6.5 -56.5t-18.5 -49.5q-30 10 -52.5 13.5t-51.5 3.5q-62 0 -93.5 -40.5t-31.5 -115.5q0 -81 34 -118t92 -37 q15 0 27.5 0.5t24.5 2.5t24.5 6t29.5 10q12 -20 20 -46.5t8 -62.5q-29 -11 -54.5 -16.5t-51.5 -7.5v-107q-21 -6 -43 -6t-44 6v109z" />
<glyph unicode="&#xa3;" d="M86 14l13 11q21 18 35.5 44t23.5 54t13.5 54.5t4.5 44.5q0 16 -1.5 32.5t-3.5 33.5h-90q-3 16 -4 29t-1 27q0 13 1 25t4 27h73q-4 26 -6.5 51.5t-2.5 51.5q0 41 14.5 80.5t44.5 70.5t75.5 50t108.5 19q55 0 93 -8t72 -22q-2 -23 -9 -53.5t-23 -62.5q-28 11 -54 19t-66 8 q-31 0 -52 -10.5t-33.5 -26.5t-18 -36t-5.5 -39q0 -29 2.5 -50t6.5 -42h156q3 -16 4 -29t1 -27q0 -13 -1 -25t-4 -27h-139q1 -8 2 -17t1 -17q0 -34 -5 -63.5t-22 -64.5h258q3 -17 4 -32.5t1 -29.5q0 -16 -1 -31.5t-4 -32.5h-462z" />
<glyph unicode="&#xa4;" d="M109 233q-29 49 -29 109q0 61 31 111l-72 73q13 28 33 46.5t47 33.5l74 -74q50 28 109 28q58 0 108 -28l73 74q23 -15 44 -34t35 -45l-71 -70q34 -53 34 -115q0 -31 -8.5 -59.5t-23.5 -52.5l69 -68q-15 -23 -34.5 -44t-44.5 -35l-70 71q-50 -29 -111 -29q-63 0 -113 29 l-70 -71q-28 13 -46.5 33.5t-33.5 46.5zM302 236q22 0 40.5 8.5t32 23t21.5 33.5t8 41t-8 42t-21.5 34.5t-32 23t-40.5 8.5q-21 0 -39.5 -8.5t-32 -23t-21.5 -34.5t-8 -42t8 -41t21.5 -33.5t32 -23t39.5 -8.5z" />
<glyph unicode="&#xa5;" d="M228 156h-166q-2 7 -3 18t-1 24q0 12 1 23.5t3 19.5h166v70h-166q-2 7 -3 18t-1 24q0 12 1 23.5t3 19.5h119l-168 311q42 6 84 6q38 0 76 -6l132 -279l130 279q37 6 76 6q36 0 77 -6l-168 -311h136q3 -14 3 -40q0 -13 -0.5 -25t-2.5 -20h-183v-70h183q3 -14 3 -40 q0 -13 -0.5 -25t-2.5 -20h-183v-157q-20 -3 -37.5 -4t-35.5 -1q-17 0 -35 1t-37 4v157z" />
<glyph unicode="&#xa6;" horiz-adv-x="341" d="M102 776q34 6 68 6t69 -6v-335q-35 -6 -68 -6q-35 0 -69 6v335zM102 167q34 6 68 6t69 -6v-335q-35 -6 -68 -6q-35 0 -69 6v335z" />
<glyph unicode="&#xa7;" horiz-adv-x="572" d="M178 221q-65 20 -89.5 53t-24.5 73q0 30 16 62t46 63q-35 33 -35 89q0 76 59 117t162 41q46 0 84.5 -7t79.5 -21q-2 -26 -12 -54.5t-22 -49.5q-25 11 -55.5 18.5t-61.5 7.5q-53 0 -73 -12t-20 -33q0 -20 13.5 -30t40.5 -18l120 -36q59 -18 81.5 -50.5t22.5 -70.5 q0 -37 -16.5 -69t-45.5 -63q17 -16 26 -36t9 -49q0 -38 -18.5 -67.5t-50.5 -49.5t-76.5 -30.5t-95.5 -10.5q-93 0 -171 28q2 26 12 54.5t21 49.5q26 -11 60 -18.5t65 -7.5q54 0 83.5 10.5t29.5 37.5q0 20 -13 28.5t-41 16.5zM353 281q10 9 21 24t11 35t-12.5 34.5 t-53.5 25.5l-100 26q-14 -11 -23 -25t-9 -34t12.5 -33t42.5 -21z" />
<glyph unicode="&#xa8;" horiz-adv-x="500" d="M75 593q-2 15 -3.5 29.5t-1.5 29.5q0 14 1.5 29t3.5 30q15 3 32.5 4.5t31.5 1.5t31.5 -1.5t33.5 -4.5q3 -15 4 -29.5t1 -29.5q0 -14 -1 -29t-4 -30q-16 -3 -33 -4t-32 -1q-13 0 -31 1t-33 4zM296 593q-6 30 -6 59t6 59q15 3 32.5 4.5t31.5 1.5t31.5 -1.5t33.5 -4.5 q2 -15 3 -29.5t1 -29.5q0 -14 -1 -29t-3 -30q-16 -3 -33.5 -4t-31.5 -1t-31.5 1t-32.5 4z" />
<glyph unicode="&#xa9;" horiz-adv-x="822" d="M514 263q10 -16 15.5 -40t5.5 -50q-29 -11 -54.5 -14.5t-54.5 -3.5q-47 0 -83 16.5t-60 44t-36.5 65t-12.5 79.5q0 41 12.5 78.5t36.5 66t59 45.5t80 17q34 0 56.5 -4t51.5 -15q0 -20 -4 -45t-14 -45q-24 8 -40 10.5t-36 2.5q-44 0 -68 -28.5t-24 -82.5q0 -57 25.5 -84 t66.5 -27q23 0 38 2t40 12zM411 61q68 0 122 23t91.5 63t57.5 94.5t20 117.5t-20 117.5t-57.5 94.5t-91.5 63t-122 23t-122 -23t-91.5 -63t-57.5 -94.5t-20 -117.5t20 -117.5t57.5 -94.5t91.5 -63t122 -23zM411 -13q-83 0 -151.5 28.5t-117 78t-75.5 117.5t-27 148 q0 79 27 147.5t75.5 118t117 78t151.5 28.5t151.5 -28t117 -78t75.5 -118t27 -148t-27 -148t-75.5 -117.5t-117 -78t-151.5 -28.5z" />
<glyph unicode="&#xaa;" horiz-adv-x="500" d="M287 495q-8 1 -18.5 1.5t-19.5 0.5q-37 0 -58.5 -12.5t-21.5 -41.5q0 -18 8.5 -27.5t20.5 -14t25 -5.5t22 -1q13 0 23.5 1t18.5 3v96zM287 573q0 35 -21.5 45t-62.5 10q-20 0 -43 -3.5t-46 -11.5q-13 20 -19 39t-6 44q35 11 71 17t65 6q82 0 128 -38.5t46 -123.5v-227 q-26 -8 -68 -16.5t-88 -8.5q-41 0 -74.5 7.5t-57 23.5t-36.5 41.5t-13 61.5q0 37 16 62.5t41.5 40.5t57.5 21.5t63 6.5h23.5t23.5 -2v5z" />
<glyph unicode="&#xab;" horiz-adv-x="640" d="M40 266l156 222q31 6 67 6q40 0 79 -6l-154 -222l154 -222q-39 -6 -79 -6q-36 0 -67 6zM307 266l156 222q31 6 67 6q40 0 79 -6l-154 -222l154 -222q-39 -6 -79 -6q-36 0 -67 6z" />
<glyph unicode="&#xac;" d="M520 415v-288q-30 -6 -61 -6q-32 0 -62 6v165h-304q-6 30 -6 61q0 32 6 62h427z" />
<glyph unicode="&#xad;" horiz-adv-x="371" d="M313 336q6 -30 6 -61q0 -32 -6 -62h-255q-6 30 -6 61q0 32 6 62h255z" />
<glyph unicode="&#xae;" horiz-adv-x="822" d="M277 558q28 5 54 7.5t58 2.5q95 0 136 -33.5t41 -88.5q0 -34 -13.5 -60.5t-30.5 -40.5l-15 -12l88 -156q-14 -2 -29.5 -3t-32.5 -1q-14 0 -26.5 1t-24.5 3l-90 175l16 10q23 14 38 30.5t15 40.5q0 23 -14 37.5t-44 14.5q-7 0 -12.5 -0.5t-15.5 -2.5v-306q-20 -4 -47 -4 q-12 0 -25 1t-26 3v382zM411 61q68 0 122 23t91.5 63t57.5 94.5t20 117.5t-20 117.5t-57.5 94.5t-91.5 63t-122 23t-122 -23t-91.5 -63t-57.5 -94.5t-20 -117.5t20 -117.5t57.5 -94.5t91.5 -63t122 -23zM411 -13q-83 0 -151.5 28.5t-117 78t-75.5 117.5t-27 148 q0 79 27 147.5t75.5 118t117 78t151.5 28.5t151.5 -28t117 -78t75.5 -118t27 -148t-27 -148t-75.5 -117.5t-117 -78t-151.5 -28.5z" />
<glyph unicode="&#xaf;" horiz-adv-x="500" d="M383 707q6 -26 6 -50q0 -26 -6 -51h-265q-6 25 -6 50t6 51h265z" />
<glyph unicode="&#xb0;" horiz-adv-x="377" d="M38 575q0 31 12 59t32 48t47.5 32t58.5 12t59 -12t48.5 -32t32.5 -48t12 -59t-12 -58t-32.5 -47.5t-48.5 -32t-59 -11.5t-58.5 11.5t-47.5 32t-32 47.5t-12 58zM188 510q26 0 45 18t19 47t-19 48t-45 19t-44 -19t-18 -48t18 -47t44 -18z" />
<glyph unicode="&#xb1;" d="M239 121v172h-157q-6 30 -6 60q0 31 6 61h157v177q30 6 60 6q31 0 61 -6v-177h157q6 -30 6 -60q0 -31 -6 -61h-157v-172h150q6 -30 6 -60q0 -31 -6 -61h-421q-6 30 -6 60q0 31 6 61h150z" />
<glyph unicode="&#xb2;" horiz-adv-x="450" d="M53 324l133 146q60 66 60 106q0 19 -16 31.5t-45 12.5q-26 0 -45 -4.5t-45 -16.5q-9 21 -16.5 44t-10.5 49q33 13 62.5 20t68.5 7q74 0 119.5 -34.5t45.5 -97.5q0 -48 -24.5 -85.5t-65.5 -84.5l-16 -17h126q4 -19 4 -46q0 -29 -4 -49h-323z" />
<glyph unicode="&#xb3;" horiz-adv-x="450" d="M144 498l76 119h-124q-2 12 -3.5 23t-1.5 22q0 22 5 45h274l11 -21l-93 -134q22 -3 40.5 -13.5t32 -25.5t20.5 -34t7 -39q0 -36 -14.5 -63t-40.5 -45.5t-61 -28t-76 -9.5q-19 0 -34 1t-29.5 3t-29.5 5.5t-34 9.5q1 24 9 48t19 39q27 -8 50.5 -13.5t46.5 -5.5 q33 0 57.5 14t24.5 44q0 23 -21 33.5t-47 10.5q-8 0 -19 -0.5t-26 -5.5z" />
<glyph unicode="&#xb4;" horiz-adv-x="500" d="M220 719q40 6 90 6q26 0 44.5 -1.5t38.5 -4.5l-151 -123q-13 -2 -31 -4t-38 -2q-32 0 -65 6z" />
<glyph unicode="&#xb5;" horiz-adv-x="596" d="M69 517q36 6 70 6q35 0 71 -6v-269q0 -80 25 -111.5t72 -31.5q26 0 43.5 8.5t27.5 23.5t14 35.5t4 44.5v300q36 6 70 6q35 0 71 -6v-518q-11 -2 -21.5 -3.5t-26.5 -1.5q-15 0 -27.5 1.5t-26.5 4.5q-2 3 -5.5 10t-6.5 15.5l-6 17t-4 13.5q-29 -35 -59.5 -51.5t-76.5 -16.5 q-19 0 -36.5 4t-32.5 11v-240q-19 -3 -36 -4t-34 -1t-33.5 1t-35.5 4v754z" />
<glyph unicode="&#xb6;" horiz-adv-x="599" d="M287 313h-11q-43 0 -83.5 10.5t-72 33.5t-51 60t-19.5 91q0 59 21.5 100.5t63.5 67.5t103 37.5t139 11.5v-731q-33 0 -56 1.5t-34 4.5v313zM442 725q32 0 55.5 -1.5t34.5 -4.5v-719q-11 -3 -34.5 -4.5t-55.5 -1.5v731z" />
<glyph unicode="&#xb7;" horiz-adv-x="289" d="M74 204q-6 36 -6 70q0 35 6 71q36 6 70 6q35 0 71 -6q6 -36 6 -70q0 -35 -6 -71q-36 -6 -70 -6q-35 0 -71 6z" />
<glyph unicode="&#xb8;" horiz-adv-x="500" d="M201 24h71l-30 -77q3 1 6.5 1.5t9.5 0.5q53 0 82.5 -24.5t29.5 -62.5q0 -51 -43 -77t-112 -26q-14 0 -35 1t-45 8q2 16 5 35.5t13 34.5q18 -5 32 -7t30 -2q28 0 45 7t17 24t-16 23.5t-42 6.5q-14 0 -30.5 -2t-30.5 -7l-7 7z" />
<glyph unicode="&#xb9;" horiz-adv-x="450" d="M187 399v178l-76 -28q-16 17 -25.5 37t-17.5 48l203 78h25v-313h85q3 -13 4 -24t1 -22q0 -14 -1 -24t-4 -24h-278q-5 13 -6.5 23.5t-1.5 24.5q0 12 1.5 23t6.5 23h84z" />
<glyph unicode="&#xba;" horiz-adv-x="500" d="M249 386q38 0 55.5 33.5t17.5 87.5q0 56 -17.5 88.5t-55.5 32.5q-37 0 -54.5 -32.5t-17.5 -88.5q0 -54 17.5 -87.5t54.5 -33.5zM249 296q-48 0 -83 18t-58.5 47.5t-34.5 67.5t-11 78t11 78.5t34.5 68t58.5 47.5t83 18t83.5 -18t59 -47.5t34.5 -68t11 -78.5t-11 -78 t-34.5 -67.5t-59 -47.5t-83.5 -18z" />
<glyph unicode="&#xbb;" horiz-adv-x="639" d="M185 266l-154 222q39 6 79 6q35 0 67 -6l156 -222l-156 -222q-32 -6 -67 -6q-40 0 -79 6zM451 266l-154 222q39 6 79 6q35 0 67 -6l156 -222l-156 -222q-32 -6 -67 -6q-40 0 -79 6z" />
<glyph unicode="&#xbc;" horiz-adv-x="1050" d="M185 399v178l-76 -28q-16 17 -25.5 37t-17.5 48l203 78h25v-313h85q3 -13 4 -24t1 -22q0 -14 -1 -24t-4 -24h-278q-5 13 -6.5 23.5t-1.5 24.5q0 12 1.5 23t6.5 23h84zM725 709q34 6 70 6q31 0 69 -6l-484 -707q-35 -6 -67 -6q-34 0 -71 6zM626 92l158 326q25 -2 48.5 -10 t44.5 -22l-103 -225h64v71q24 3 54 3q27 0 51 -3v-71h43q4 -19 4 -45q0 -23 -4 -42h-43v-73q-23 -4 -53 -4q-32 0 -52 4v73h-201z" />
<glyph unicode="&#xbd;" horiz-adv-x="1050" d="M179 399v178l-76 -28q-16 17 -25.5 37t-17.5 48l203 78h25v-313h85q3 -13 4 -24t1 -22q0 -14 -1 -24t-4 -24h-278q-5 13 -6.5 23.5t-1.5 24.5q0 12 1.5 23t6.5 23h84zM663 20l133 146q60 66 60 106q0 19 -16 31.5t-45 12.5q-26 0 -45 -4.5t-45 -16.5q-9 21 -16.5 44 t-10.5 49q33 13 62.5 20t68.5 7q74 0 119.5 -34.5t45.5 -97.5q0 -48 -24.5 -85.5t-65.5 -84.5l-16 -17h126q4 -19 4 -46q0 -29 -4 -49h-323zM709 709q34 6 70 6q31 0 69 -6l-484 -707q-35 -6 -67 -6q-34 0 -71 6z" />
<glyph unicode="&#xbe;" horiz-adv-x="1050" d="M168 498l76 119h-124q-2 12 -3.5 23t-1.5 22q0 22 5 45h274l11 -21l-93 -134q22 -3 40.5 -13.5t32 -25.5t20.5 -34t7 -39q0 -36 -14.5 -63t-40.5 -45.5t-61 -28t-76 -9.5q-19 0 -34 1t-29.5 3t-29.5 5.5t-34 9.5q1 24 9 48t19 39q27 -8 50.5 -13.5t46.5 -5.5 q33 0 57.5 14t24.5 44q0 23 -21 33.5t-47 10.5q-8 0 -19 -0.5t-26 -5.5zM630 99l158 326q25 -2 48.5 -10t44.5 -22l-103 -225h64v71q24 3 54 3q27 0 51 -3v-71h43q4 -19 4 -45q0 -23 -4 -42h-43v-73q-23 -4 -53 -4q-32 0 -52 4v73h-201zM727 709q34 6 70 6q31 0 69 -6 l-484 -707q-35 -6 -67 -6q-34 0 -71 6z" />
<glyph unicode="&#xbf;" horiz-adv-x="493" d="M215 291q34 6 67 6t63 -6v-172q-23 -4 -48 -11.5t-46 -20.5t-34.5 -33t-13.5 -48q0 -43 31 -65.5t82 -22.5q21 0 37.5 1.5t30.5 5t28 8t31 10.5q14 -26 23 -54t11 -58q-26 -9 -48 -15.5t-43 -10.5t-42 -5.5t-45 -1.5q-120 0 -181 54.5t-61 149.5q0 47 18 81t43.5 57.5 t52.5 37.5t44 22v91zM208 370q-6 37 -6 73t6 74q37 6 73 6t74 -6q6 -38 6 -73q0 -37 -6 -74q-38 -6 -73 -6q-37 0 -74 6z" />
<glyph unicode="&#xc0;" horiz-adv-x="636" d="M237 719q21 3 40 4.5t42 1.5q20 0 39 -1.5t42 -4.5l225 -719q-41 -6 -80 -6q-38 0 -74 6l-40 144h-238l-41 -144q-36 -6 -69 -6q-37 0 -73 6zM397 265l-83 302l-87 -302h170zM102 885q17 3 41 5t50 2q27 0 53.5 -2t48.5 -5l98 -104q-36 -6 -73 -6q-17 0 -35 1t-36 5z" />
<glyph unicode="&#xc1;" horiz-adv-x="636" d="M237 719q21 3 40 4.5t42 1.5q20 0 39 -1.5t42 -4.5l225 -719q-41 -6 -80 -6q-38 0 -74 6l-40 144h-238l-41 -144q-36 -6 -69 -6q-37 0 -73 6zM397 265l-83 302l-87 -302h170zM326 885q22 3 48.5 5t53.5 2q26 0 50 -2t41 -5l-147 -104q-18 -4 -36 -5t-35 -1q-37 0 -73 6z " />
<glyph unicode="&#xc2;" horiz-adv-x="636" d="M237 719q21 3 40 4.5t42 1.5q20 0 39 -1.5t42 -4.5l225 -719q-41 -6 -80 -6q-38 0 -74 6l-40 144h-238l-41 -144q-36 -6 -69 -6q-37 0 -73 6zM397 265l-83 302l-87 -302h170zM230 885q15 2 37 4t50 2q27 0 49 -2t38 -4l106 -104q-14 -3 -33.5 -4.5t-38.5 -1.5 q-17 0 -40 1.5t-35 4.5l-47 50l-45 -50q-6 -2 -16 -3t-21 -1.5l-22 -1t-20 -0.5q-19 0 -36.5 1.5t-31.5 4.5z" />
<glyph unicode="&#xc3;" horiz-adv-x="636" d="M237 719q21 3 40 4.5t42 1.5q20 0 39 -1.5t42 -4.5l225 -719q-41 -6 -80 -6q-38 0 -74 6l-40 144h-238l-41 -144q-36 -6 -69 -6q-37 0 -73 6zM397 265l-83 302l-87 -302h170zM127 863q17 22 46.5 39t67.5 17q19 0 37.5 -6.5t36.5 -14t36.5 -14t38.5 -6.5q18 0 33.5 6.5 t37.5 27.5q33 -35 45 -76q-17 -22 -46 -38t-64 -16q-21 0 -41 6.5t-39 14t-37.5 14t-36.5 6.5q-20 0 -34.5 -7t-36.5 -27q-15 18 -27 35.5t-17 38.5z" />
<glyph unicode="&#xc4;" horiz-adv-x="636" d="M237 719q21 3 40 4.5t42 1.5q20 0 39 -1.5t42 -4.5l225 -719q-41 -6 -80 -6q-38 0 -74 6l-40 144h-238l-41 -144q-36 -6 -69 -6q-37 0 -73 6zM397 265l-83 302l-87 -302h170zM142 789q-2 15 -3.5 29.5t-1.5 29.5q0 14 1.5 29t3.5 30q15 3 32.5 4.5t31.5 1.5t31.5 -1.5 t33.5 -4.5q3 -15 4 -29.5t1 -29.5q0 -14 -1 -29t-4 -30q-16 -3 -33 -4t-32 -1q-13 0 -31 1t-33 4zM363 789q-6 30 -6 59t6 59q15 3 32.5 4.5t31.5 1.5t31.5 -1.5t33.5 -4.5q2 -15 3 -29.5t1 -29.5q0 -14 -1 -29t-3 -30q-16 -3 -33.5 -4t-31.5 -1t-31.5 1t-32.5 4z" />
<glyph unicode="&#xc5;" horiz-adv-x="636" d="M239 718q-21 16 -34 39.5t-13 55.5q0 57 36 90t90 33t90 -33t36 -90q0 -31 -13 -55t-33 -40l227 -718q-41 -6 -80 -6q-38 0 -74 6l-40 144h-238l-41 -144q-36 -6 -69 -6q-37 0 -73 6zM397 265l-83 314l-87 -314h170zM318 752q48 0 48 61q0 30 -12.5 46t-35.5 16 t-35.5 -16t-12.5 -46q0 -29 12.5 -45t35.5 -16z" />
<glyph unicode="&#xc6;" horiz-adv-x="957" d="M415 719h489q6 -30 6 -61q0 -33 -6 -63h-262v-156h208q6 -32 6 -62q0 -32 -6 -63h-208v-190h269q6 -30 6 -61q0 -33 -6 -63h-415v148h-249l-78 -148q-36 -6 -77 -6q-46 0 -82 6zM496 269v338h-6l-179 -338h185z" />
<glyph unicode="&#xc7;" horiz-adv-x="618" d="M275 -108l39 104q-65 12 -114 44t-82 79t-49.5 108t-16.5 131q0 80 23 148.5t66.5 118.5t107 78t144.5 28q48 0 88.5 -6t87.5 -25q-2 -30 -12 -58.5t-22 -57.5q-35 12 -62 17t-64 5q-96 0 -147.5 -62.5t-51.5 -185.5q0 -244 207 -244q37 0 65 5t63 17q13 -28 21.5 -57.5 t12.5 -59.5q-52 -19 -93.5 -25t-89.5 -6q-3 0 -6 0.5t-6 0.5l-15 -36q5 1 9.5 1.5t10.5 0.5q30 0 51 -7.5t35 -20.5t20.5 -29.5t6.5 -35.5q0 -51 -41 -77.5t-117 -26.5q-17 0 -40 2t-49 9q2 18 6 37t16 36q18 -6 34 -8.5t29 -2.5q36 0 50.5 7.5t14.5 23.5q0 27 -55 27 q-14 0 -29 -2t-35 -9z" />
<glyph unicode="&#xc8;" horiz-adv-x="531" d="M70 719h408q6 -30 6 -61q0 -33 -6 -63h-262v-156h208q6 -32 6 -62q0 -32 -6 -63h-208v-190h269q6 -30 6 -61q0 -33 -6 -63h-415v719zM98 885q17 3 41 5t50 2q27 0 53.5 -2t48.5 -5l98 -104q-36 -6 -73 -6q-17 0 -35 1t-36 5z" />
<glyph unicode="&#xc9;" horiz-adv-x="531" d="M70 719h408q6 -30 6 -61q0 -33 -6 -63h-262v-156h208q6 -32 6 -62q0 -32 -6 -63h-208v-190h269q6 -30 6 -61q0 -33 -6 -63h-415v719zM258 885q22 3 48.5 5t53.5 2q26 0 50 -2t41 -5l-147 -104q-18 -4 -36 -5t-35 -1q-37 0 -73 6z" />
<glyph unicode="&#xca;" horiz-adv-x="531" d="M70 719h408q6 -30 6 -61q0 -33 -6 -63h-262v-156h208q6 -32 6 -62q0 -32 -6 -63h-208v-190h269q6 -30 6 -61q0 -33 -6 -63h-415v719zM178 885q15 2 37 4t50 2q27 0 49 -2t38 -4l106 -104q-14 -3 -33.5 -4.5t-38.5 -1.5q-17 0 -40 1.5t-35 4.5l-47 50l-45 -50 q-6 -2 -16 -3t-21 -1.5l-22 -1t-20 -0.5q-19 0 -36.5 1.5t-31.5 4.5z" />
<glyph unicode="&#xcb;" horiz-adv-x="531" d="M70 719h408q6 -30 6 -61q0 -33 -6 -63h-262v-156h208q6 -32 6 -62q0 -32 -6 -63h-208v-190h269q6 -30 6 -61q0 -33 -6 -63h-415v719zM96 789q-2 15 -3.5 29.5t-1.5 29.5q0 14 1.5 29t3.5 30q15 3 32.5 4.5t31.5 1.5t31.5 -1.5t33.5 -4.5q3 -15 4 -29.5t1 -29.5 q0 -14 -1 -29t-4 -30q-16 -3 -33 -4t-32 -1q-13 0 -31 1t-33 4zM317 789q-6 30 -6 59t6 59q15 3 32.5 4.5t31.5 1.5t31.5 -1.5t33.5 -4.5q2 -15 3 -29.5t1 -29.5q0 -14 -1 -29t-3 -30q-16 -3 -33.5 -4t-31.5 -1t-31.5 1t-32.5 4z" />
<glyph unicode="&#xcc;" horiz-adv-x="287" d="M70 719q37 6 73 6t74 -6v-719q-38 -6 -73 -6q-37 0 -74 6v719zM-51 885q17 3 41 5t50 2q27 0 53.5 -2t48.5 -5l98 -104q-36 -6 -73 -6q-17 0 -35 1t-36 5z" />
<glyph unicode="&#xcd;" horiz-adv-x="287" d="M70 719q37 6 73 6t74 -6v-719q-38 -6 -73 -6q-37 0 -74 6v719zM160 885q22 3 48.5 5t53.5 2q26 0 50 -2t41 -5l-147 -104q-18 -4 -36 -5t-35 -1q-37 0 -73 6z" />
<glyph unicode="&#xce;" horiz-adv-x="287" d="M70 719q37 6 73 6t74 -6v-719q-38 -6 -73 -6q-37 0 -74 6v719zM57 885q15 2 37 4t50 2q27 0 49 -2t38 -4l106 -104q-14 -3 -33.5 -4.5t-38.5 -1.5q-17 0 -40 1.5t-35 4.5l-47 50l-45 -50q-6 -2 -16 -3t-21 -1.5l-22 -1t-20 -0.5q-19 0 -36.5 1.5t-31.5 4.5z" />
<glyph unicode="&#xcf;" horiz-adv-x="287" d="M70 719q37 6 73 6t74 -6v-719q-38 -6 -73 -6q-37 0 -74 6v719zM-31 789q-2 15 -3.5 29.5t-1.5 29.5q0 14 1.5 29t3.5 30q15 3 32.5 4.5t31.5 1.5t31.5 -1.5t33.5 -4.5q3 -15 4 -29.5t1 -29.5q0 -14 -1 -29t-4 -30q-16 -3 -33 -4t-32 -1q-13 0 -31 1t-33 4zM190 789 q-6 30 -6 59t6 59q15 3 32.5 4.5t31.5 1.5t31.5 -1.5t33.5 -4.5q2 -15 3 -29.5t1 -29.5q0 -14 -1 -29t-3 -30q-16 -3 -33.5 -4t-31.5 -1t-31.5 1t-32.5 4z" />
<glyph unicode="&#xd0;" horiz-adv-x="701" d="M74 326h-68q-6 25 -6 50t6 51h68v292q42 5 88 8.5t102 3.5q189 0 287.5 -94t98.5 -282q0 -189 -100 -278t-297 -89q-51 0 -94 3.5t-85 8.5v326zM221 116q9 -1 23 -2t34 -1q46 0 85.5 10.5t68.5 38.5t46 75t17 121q0 72 -17 120t-46 76t-66.5 39.5t-79.5 11.5 q-14 0 -32.5 -0.5t-32.5 -2.5v-175h139q6 -26 6 -50q0 -26 -6 -51h-139v-210z" />
<glyph unicode="&#xd1;" horiz-adv-x="669" d="M70 719q31 6 59 6q30 0 62 -6l278 -458v458q36 6 69 6q31 0 60 -6v-719q-32 -6 -58 -6q-28 0 -61 6l-280 457v-457q-32 -6 -65 -6t-64 6v719zM154 863q17 22 46.5 39t67.5 17q19 0 37.5 -6.5t36.5 -14t36.5 -14t38.5 -6.5q18 0 33.5 6.5t37.5 27.5q33 -35 45 -76 q-17 -22 -46 -38t-64 -16q-21 0 -41 6.5t-39 14t-37.5 14t-36.5 6.5q-20 0 -34.5 -7t-36.5 -27q-15 18 -27 35.5t-17 38.5z" />
<glyph unicode="&#xd2;" horiz-adv-x="726" d="M363 -12q-81 0 -140 28t-97 77.5t-56.5 117t-18.5 147.5t18.5 148.5t56.5 118.5t97 78t140 28t140 -28t97 -78t56.5 -118.5t18.5 -148.5t-18.5 -147.5t-56.5 -117t-97 -77.5t-140 -28zM363 110q155 0 155 248q0 124 -37.5 186t-116.5 62q-157 0 -157 -248t156 -248z M146 885q17 3 41 5t50 2q27 0 53.5 -2t48.5 -5l98 -104q-36 -6 -73 -6q-17 0 -35 1t-36 5z" />
<glyph unicode="&#xd3;" horiz-adv-x="726" d="M363 -12q-81 0 -140 28t-97 77.5t-56.5 117t-18.5 147.5t18.5 148.5t56.5 118.5t97 78t140 28t140 -28t97 -78t56.5 -118.5t18.5 -148.5t-18.5 -147.5t-56.5 -117t-97 -77.5t-140 -28zM363 110q155 0 155 248q0 124 -37.5 186t-116.5 62q-157 0 -157 -248t156 -248z M382 885q22 3 48.5 5t53.5 2q26 0 50 -2t41 -5l-147 -104q-18 -4 -36 -5t-35 -1q-37 0 -73 6z" />
<glyph unicode="&#xd4;" horiz-adv-x="726" d="M363 -12q-81 0 -140 28t-97 77.5t-56.5 117t-18.5 147.5t18.5 148.5t56.5 118.5t97 78t140 28t140 -28t97 -78t56.5 -118.5t18.5 -148.5t-18.5 -147.5t-56.5 -117t-97 -77.5t-140 -28zM363 110q155 0 155 248q0 124 -37.5 186t-116.5 62q-157 0 -157 -248t156 -248z M275 885q15 2 37 4t50 2q27 0 49 -2t38 -4l106 -104q-14 -3 -33.5 -4.5t-38.5 -1.5q-17 0 -40 1.5t-35 4.5l-47 50l-45 -50q-6 -2 -16 -3t-21 -1.5l-22 -1t-20 -0.5q-19 0 -36.5 1.5t-31.5 4.5z" />
<glyph unicode="&#xd5;" horiz-adv-x="726" d="M363 -12q-81 0 -140 28t-97 77.5t-56.5 117t-18.5 147.5t18.5 148.5t56.5 118.5t97 78t140 28t140 -28t97 -78t56.5 -118.5t18.5 -148.5t-18.5 -147.5t-56.5 -117t-97 -77.5t-140 -28zM363 110q155 0 155 248q0 124 -37.5 186t-116.5 62q-157 0 -157 -248t156 -248z M185 863q17 22 46.5 39t67.5 17q19 0 37.5 -6.5t36.5 -14t36.5 -14t38.5 -6.5q18 0 33.5 6.5t37.5 27.5q33 -35 45 -76q-17 -22 -46 -38t-64 -16q-21 0 -41 6.5t-39 14t-37.5 14t-36.5 6.5q-20 0 -34.5 -7t-36.5 -27q-15 18 -27 35.5t-17 38.5z" />
<glyph unicode="&#xd6;" horiz-adv-x="726" d="M363 -12q-81 0 -140 28t-97 77.5t-56.5 117t-18.5 147.5t18.5 148.5t56.5 118.5t97 78t140 28t140 -28t97 -78t56.5 -118.5t18.5 -148.5t-18.5 -147.5t-56.5 -117t-97 -77.5t-140 -28zM363 110q155 0 155 248q0 124 -37.5 186t-116.5 62q-157 0 -157 -248t156 -248z M188 789q-2 15 -3.5 29.5t-1.5 29.5q0 14 1.5 29t3.5 30q15 3 32.5 4.5t31.5 1.5t31.5 -1.5t33.5 -4.5q3 -15 4 -29.5t1 -29.5q0 -14 -1 -29t-4 -30q-16 -3 -33 -4t-32 -1q-13 0 -31 1t-33 4zM409 789q-6 30 -6 59t6 59q15 3 32.5 4.5t31.5 1.5t31.5 -1.5t33.5 -4.5 q2 -15 3 -29.5t1 -29.5q0 -14 -1 -29t-3 -30q-16 -3 -33.5 -4t-31.5 -1t-31.5 1t-32.5 4z" />
<glyph unicode="&#xd7;" d="M215 346l-111 111q16 25 38 47t48 39l111 -111l110 110q25 -17 47 -38q11 -11 20.5 -22.5t18.5 -24.5l-111 -111l111 -111q-8 -13 -17.5 -24t-20.5 -22t-22.5 -21t-24.5 -18l-111 111l-112 -112q-26 16 -47 38q-11 11 -20.5 23t-18.5 25z" />
<glyph unicode="&#xd8;" horiz-adv-x="726" d="M123 96q-37 50 -54.5 116.5t-17.5 145.5q0 80 18.5 148.5t56.5 118.5t97 78t140 28q57 0 102.5 -14t80.5 -40l30 41q18 6 41 6q26 0 48 -5l-67 -92q39 -50 58 -119t19 -150q0 -80 -18.5 -147.5t-56.5 -117t-97 -77.5t-140 -28q-60 0 -107 15t-83 43l-32 -45 q-10 -3 -21 -4t-22 -1q-13 0 -24.5 1t-20.5 3zM255 158q39 -48 108 -48q155 0 155 248q0 80 -17 137zM464 565q-36 41 -100 41q-157 0 -157 -248q0 -38 3 -70t11 -58z" />
<glyph unicode="&#xd9;" horiz-adv-x="671" d="M66 719q19 3 37 4t37 1q17 0 35 -1t37 -4v-373q0 -61 4.5 -104.5t18 -72t38 -42t63.5 -13.5t63 13.5t37.5 42t18 72t4.5 104.5v373q20 3 38 4t35 1q18 0 36.5 -1t37.5 -4v-404q0 -73 -12 -133.5t-43 -103.5t-83 -66.5t-132 -23.5t-132 23.5t-83 66.5t-43 103.5t-12 133.5 v404zM134 885q17 3 41 5t50 2q27 0 53.5 -2t48.5 -5l98 -104q-36 -6 -73 -6q-17 0 -35 1t-36 5z" />
<glyph unicode="&#xda;" horiz-adv-x="671" d="M66 719q19 3 37 4t37 1q17 0 35 -1t37 -4v-373q0 -61 4.5 -104.5t18 -72t38 -42t63.5 -13.5t63 13.5t37.5 42t18 72t4.5 104.5v373q20 3 38 4t35 1q18 0 36.5 -1t37.5 -4v-404q0 -73 -12 -133.5t-43 -103.5t-83 -66.5t-132 -23.5t-132 23.5t-83 66.5t-43 103.5t-12 133.5 v404zM352 885q22 3 48.5 5t53.5 2q26 0 50 -2t41 -5l-147 -104q-18 -4 -36 -5t-35 -1q-37 0 -73 6z" />
<glyph unicode="&#xdb;" horiz-adv-x="671" d="M66 719q19 3 37 4t37 1q17 0 35 -1t37 -4v-373q0 -61 4.5 -104.5t18 -72t38 -42t63.5 -13.5t63 13.5t37.5 42t18 72t4.5 104.5v373q20 3 38 4t35 1q18 0 36.5 -1t37.5 -4v-404q0 -73 -12 -133.5t-43 -103.5t-83 -66.5t-132 -23.5t-132 23.5t-83 66.5t-43 103.5t-12 133.5 v404zM249 885q15 2 37 4t50 2q27 0 49 -2t38 -4l106 -104q-14 -3 -33.5 -4.5t-38.5 -1.5q-17 0 -40 1.5t-35 4.5l-47 50l-45 -50q-6 -2 -16 -3t-21 -1.5l-22 -1t-20 -0.5q-19 0 -36.5 1.5t-31.5 4.5z" />
<glyph unicode="&#xdc;" horiz-adv-x="671" d="M66 719q19 3 37 4t37 1q17 0 35 -1t37 -4v-373q0 -61 4.5 -104.5t18 -72t38 -42t63.5 -13.5t63 13.5t37.5 42t18 72t4.5 104.5v373q20 3 38 4t35 1q18 0 36.5 -1t37.5 -4v-404q0 -73 -12 -133.5t-43 -103.5t-83 -66.5t-132 -23.5t-132 23.5t-83 66.5t-43 103.5t-12 133.5 v404zM162 789q-2 15 -3.5 29.5t-1.5 29.5q0 14 1.5 29t3.5 30q15 3 32.5 4.5t31.5 1.5t31.5 -1.5t33.5 -4.5q3 -15 4 -29.5t1 -29.5q0 -14 -1 -29t-4 -30q-16 -3 -33 -4t-32 -1q-13 0 -31 1t-33 4zM383 789q-6 30 -6 59t6 59q15 3 32.5 4.5t31.5 1.5t31.5 -1.5t33.5 -4.5 q2 -15 3 -29.5t1 -29.5q0 -14 -1 -29t-3 -30q-16 -3 -33.5 -4t-31.5 -1t-31.5 1t-32.5 4z" />
<glyph unicode="&#xdd;" horiz-adv-x="615" d="M234 257l-224 462q42 6 84 6q38 0 76 -6l142 -326l140 326q37 6 76 6q36 0 77 -6l-224 -462v-258q-20 -3 -38 -4t-36 -1q-17 0 -35.5 1t-37.5 4v258zM321 885q22 3 48.5 5t53.5 2q26 0 50 -2t41 -5l-147 -104q-18 -4 -36 -5t-35 -1q-37 0 -73 6z" />
<glyph unicode="&#xde;" horiz-adv-x="589" d="M70 719q19 3 37 4t35 1q16 0 35 -1t39 -4v-109q11 1 21 1h21q50 0 101.5 -10t93 -37t67.5 -76t26 -127t-26 -127t-67.5 -76t-93 -37t-101.5 -10h-42v-111q-20 -3 -39 -4t-35 -1q-17 0 -35 1t-37 4v719zM216 235q18 -2 27.5 -2.5t20.5 -0.5q25 0 49 6t42.5 21t29.5 39.5 t11 62.5q0 37 -11 62t-29.5 40t-42.5 21t-49 6q-11 0 -20.5 -0.5t-27.5 -2.5v-252z" />
<glyph unicode="&#xdf;" horiz-adv-x="604" d="M66 480q0 124 55 193.5t177 69.5q60 0 100 -16.5t64.5 -42.5t35 -58t10.5 -63q0 -41 -14 -70t-30.5 -51t-30.5 -41t-14 -41q0 -20 11.5 -32t28.5 -22.5t37 -22t37 -29.5t28.5 -45t11.5 -68q0 -25 -9 -52t-31 -49.5t-58.5 -37t-90.5 -14.5q-37 0 -66.5 5t-59.5 17 q2 27 9.5 54.5t19.5 53.5q23 -12 43.5 -16t37.5 -4q31 0 47.5 15t16.5 42q0 19 -11.5 31.5t-28.5 23t-36.5 21t-36.5 26t-28.5 37t-11.5 54.5q0 35 13 58t29 44t29 45.5t13 61.5q0 14 -3.5 27t-12 23t-22.5 16t-35 6q-44 0 -64.5 -35t-20.5 -114v-480q-36 -6 -68 -6 q-35 0 -71 6v480z" />
<glyph unicode="&#xe0;" horiz-adv-x="522" d="M328 237q-12 2 -26 3.5t-25 1.5q-49 0 -77.5 -17.5t-28.5 -56.5q0 -26 11 -40t26.5 -20.5t33 -8t30.5 -1.5q15 0 30 2.5t26 4.5v132zM328 340q0 24 -8 39t-22 23.5t-34.5 11.5t-45.5 3q-54 0 -115 -21q-14 26 -21 49t-7 55q44 15 88 22t82 7q104 0 162.5 -50t58.5 -160 v-300q-35 -11 -85 -21t-113 -10q-51 0 -93.5 9t-73 30t-47 54t-16.5 81t20.5 80.5t53 52t72.5 28t80 8.5q29 0 64 -3v12zM70 719q20 3 38.5 4.5t44.5 1.5q49 0 90 -6l112 -123q-33 -6 -65 -6q-20 0 -38 2t-31 4z" />
<glyph unicode="&#xe1;" horiz-adv-x="522" d="M328 237q-12 2 -26 3.5t-25 1.5q-49 0 -77.5 -17.5t-28.5 -56.5q0 -26 11 -40t26.5 -20.5t33 -8t30.5 -1.5q15 0 30 2.5t26 4.5v132zM328 340q0 24 -8 39t-22 23.5t-34.5 11.5t-45.5 3q-54 0 -115 -21q-14 26 -21 49t-7 55q44 15 88 22t82 7q104 0 162.5 -50t58.5 -160 v-300q-35 -11 -85 -21t-113 -10q-51 0 -93.5 9t-73 30t-47 54t-16.5 81t20.5 80.5t53 52t72.5 28t80 8.5q29 0 64 -3v12zM254 719q40 6 90 6q26 0 44.5 -1.5t38.5 -4.5l-151 -123q-13 -2 -31 -4t-38 -2q-32 0 -65 6z" />
<glyph unicode="&#xe2;" horiz-adv-x="522" d="M328 237q-12 2 -26 3.5t-25 1.5q-49 0 -77.5 -17.5t-28.5 -56.5q0 -26 11 -40t26.5 -20.5t33 -8t30.5 -1.5q15 0 30 2.5t26 4.5v132zM328 340q0 24 -8 39t-22 23.5t-34.5 11.5t-45.5 3q-54 0 -115 -21q-14 26 -21 49t-7 55q44 15 88 22t82 7q104 0 162.5 -50t58.5 -160 v-300q-35 -11 -85 -21t-113 -10q-51 0 -93.5 9t-73 30t-47 54t-16.5 81t20.5 80.5t53 52t72.5 28t80 8.5q29 0 64 -3v12zM171 719q17 2 40 3.5t44 1.5q13 0 33.5 -1t40.5 -5l97 -123q-23 -6 -61 -6q-17 0 -37.5 1.5t-37.5 5.5l-41 64l-40 -64q-13 -4 -31.5 -5.5t-36.5 -1.5 q-40 0 -68 6z" />
<glyph unicode="&#xe3;" horiz-adv-x="522" d="M328 237q-12 2 -26 3.5t-25 1.5q-49 0 -77.5 -17.5t-28.5 -56.5q0 -26 11 -40t26.5 -20.5t33 -8t30.5 -1.5q15 0 30 2.5t26 4.5v132zM328 340q0 24 -8 39t-22 23.5t-34.5 11.5t-45.5 3q-54 0 -115 -21q-14 26 -21 49t-7 55q44 15 88 22t82 7q104 0 162.5 -50t58.5 -160 v-300q-35 -11 -85 -21t-113 -10q-51 0 -93.5 9t-73 30t-47 54t-16.5 81t20.5 80.5t53 52t72.5 28t80 8.5q29 0 64 -3v12zM79 677q17 22 44.5 37.5t64.5 15.5q19 0 36.5 -5.5t34.5 -12t35 -12t37 -5.5q17 0 32 5t36 26q16 -17 27 -38t16 -42q-17 -22 -45 -36.5t-65 -14.5 q-19 0 -37 5.5t-35.5 12t-35 12t-35.5 5.5q-19 0 -33 -5.5t-35 -25.5q-14 18 -26 37.5t-16 40.5z" />
<glyph unicode="&#xe4;" horiz-adv-x="522" d="M328 237q-12 2 -26 3.5t-25 1.5q-49 0 -77.5 -17.5t-28.5 -56.5q0 -26 11 -40t26.5 -20.5t33 -8t30.5 -1.5q15 0 30 2.5t26 4.5v132zM328 340q0 24 -8 39t-22 23.5t-34.5 11.5t-45.5 3q-54 0 -115 -21q-14 26 -21 49t-7 55q44 15 88 22t82 7q104 0 162.5 -50t58.5 -160 v-300q-35 -11 -85 -21t-113 -10q-51 0 -93.5 9t-73 30t-47 54t-16.5 81t20.5 80.5t53 52t72.5 28t80 8.5q29 0 64 -3v12zM93 593q-2 15 -3.5 29.5t-1.5 29.5q0 14 1.5 29t3.5 30q15 3 32.5 4.5t31.5 1.5t31.5 -1.5t33.5 -4.5q3 -15 4 -29.5t1 -29.5q0 -14 -1 -29t-4 -30 q-16 -3 -33 -4t-32 -1q-13 0 -31 1t-33 4zM314 593q-6 30 -6 59t6 59q15 3 32.5 4.5t31.5 1.5t31.5 -1.5t33.5 -4.5q2 -15 3 -29.5t1 -29.5q0 -14 -1 -29t-3 -30q-16 -3 -33.5 -4t-31.5 -1t-31.5 1t-32.5 4z" />
<glyph unicode="&#xe5;" horiz-adv-x="522" d="M328 237q-12 2 -26 3.5t-25 1.5q-49 0 -77.5 -17.5t-28.5 -56.5q0 -26 11 -40t26.5 -20.5t33 -8t30.5 -1.5q15 0 30 2.5t26 4.5v132zM328 340q0 24 -8 39t-22 23.5t-34.5 11.5t-45.5 3q-54 0 -115 -21q-14 26 -21 49t-7 55q44 15 88 22t82 7q104 0 162.5 -50t58.5 -160 v-300q-35 -11 -85 -21t-113 -10q-51 0 -93.5 9t-73 30t-47 54t-16.5 81t20.5 80.5t53 52t72.5 28t80 8.5q29 0 64 -3v12zM151 695q0 54 33.5 84t83.5 30t83.5 -30t33.5 -84t-33.5 -84t-83.5 -30t-83.5 30t-33.5 84zM268 640q20 0 33.5 14.5t13.5 40.5t-13.5 40.5t-33.5 14.5 t-33.5 -14.5t-13.5 -40.5t13.5 -40.5t33.5 -14.5z" />
<glyph unicode="&#xe6;" horiz-adv-x="826" d="M330 340q0 24 -8 39t-23 23.5t-35.5 11.5t-45.5 3t-54.5 -5t-60.5 -16q-14 26 -21 49t-7 55q44 15 88 22t82 7q52 0 93 -15t70 -44q30 27 69.5 43t89.5 16q54 0 94.5 -19t68 -52t41 -78.5t13.5 -97.5q0 -19 -1.5 -37t-3.5 -29h-323q0 -59 40.5 -87t102.5 -28 q34 0 64.5 6.5t62.5 18.5q11 -20 19 -48t9 -60q-39 -15 -81.5 -22.5t-84.5 -7.5q-50 0 -94 11t-76 32q-34 -20 -76.5 -31.5t-97.5 -11.5q-43 0 -80.5 9t-65.5 30t-44 54t-16 81t20.5 80t53 51t72.5 27t80 8q31 0 66 -3v15zM327 230q-12 2 -25.5 3.5t-24.5 1.5 q-49 0 -77.5 -14t-28.5 -53q0 -26 10.5 -40t25 -20.5t30.5 -8t27 -1.5q31 0 52.5 6.5t32.5 11.5q-10 21 -14.5 45.5t-6.5 52.5zM650 314q-2 48 -22.5 77.5t-62.5 29.5q-50 0 -76.5 -28t-31.5 -79h193z" />
<glyph unicode="&#xe7;" horiz-adv-x="475" d="M231 -6q-48 10 -83.5 33.5t-59.5 58t-35.5 78.5t-11.5 94q0 57 15.5 106t47 86t78.5 58t109 21q22 0 40.5 -1t35.5 -4t34 -8t38 -13q0 -23 -6 -51.5t-19 -54.5q-30 10 -52.5 13.5t-51.5 3.5q-62 0 -93.5 -40.5t-31.5 -115.5q0 -81 34 -118t92 -37q15 0 27.5 0.5t24.5 2.5 t24.5 6t29.5 10q12 -20 20 -46.5t8 -62.5q-40 -15 -74 -20t-72 -5l-16 -41q3 1 6.5 1.5t9.5 0.5q53 0 82.5 -24.5t29.5 -62.5q0 -51 -43 -77t-112 -26q-14 0 -35 1t-45 8q2 16 5 35.5t13 34.5q18 -5 32 -7t30 -2q28 0 45 7t17 24t-16 23.5t-42 6.5q-14 0 -30.5 -2t-30.5 -7 l-7 7z" />
<glyph unicode="&#xe8;" horiz-adv-x="562" d="M183 215q4 -60 42 -87t100 -27q34 0 69.5 6.5t67.5 18.5q11 -20 19 -48t9 -60q-78 -30 -176 -30q-72 0 -123.5 20t-84 55.5t-48 84.5t-15.5 107q0 57 16 107t47.5 87t78 58.5t108.5 21.5q54 0 96 -19t71.5 -52t44.5 -78.5t15 -97.5q0 -19 -1.5 -37.5t-3.5 -29.5h-332z M386 314q-2 48 -26.5 77.5t-68.5 29.5q-50 0 -76 -28t-31 -79h202zM103 719q20 3 38.5 4.5t44.5 1.5q49 0 90 -6l112 -123q-33 -6 -65 -6q-20 0 -38 2t-31 4z" />
<glyph unicode="&#xe9;" horiz-adv-x="562" d="M183 215q4 -60 42 -87t100 -27q34 0 69.5 6.5t67.5 18.5q11 -20 19 -48t9 -60q-78 -30 -176 -30q-72 0 -123.5 20t-84 55.5t-48 84.5t-15.5 107q0 57 16 107t47.5 87t78 58.5t108.5 21.5q54 0 96 -19t71.5 -52t44.5 -78.5t15 -97.5q0 -19 -1.5 -37.5t-3.5 -29.5h-332z M386 314q-2 48 -26.5 77.5t-68.5 29.5q-50 0 -76 -28t-31 -79h202zM303 719q40 6 90 6q26 0 44.5 -1.5t38.5 -4.5l-151 -123q-13 -2 -31 -4t-38 -2q-32 0 -65 6z" />
<glyph unicode="&#xea;" horiz-adv-x="562" d="M183 215q4 -60 42 -87t100 -27q34 0 69.5 6.5t67.5 18.5q11 -20 19 -48t9 -60q-78 -30 -176 -30q-72 0 -123.5 20t-84 55.5t-48 84.5t-15.5 107q0 57 16 107t47.5 87t78 58.5t108.5 21.5q54 0 96 -19t71.5 -52t44.5 -78.5t15 -97.5q0 -19 -1.5 -37.5t-3.5 -29.5h-332z M386 314q-2 48 -26.5 77.5t-68.5 29.5q-50 0 -76 -28t-31 -79h202zM211 719q17 2 40 3.5t44 1.5q13 0 33.5 -1t40.5 -5l97 -123q-23 -6 -61 -6q-17 0 -37.5 1.5t-37.5 5.5l-41 64l-40 -64q-13 -4 -31.5 -5.5t-36.5 -1.5q-40 0 -68 6z" />
<glyph unicode="&#xeb;" horiz-adv-x="562" d="M183 215q4 -60 42 -87t100 -27q34 0 69.5 6.5t67.5 18.5q11 -20 19 -48t9 -60q-78 -30 -176 -30q-72 0 -123.5 20t-84 55.5t-48 84.5t-15.5 107q0 57 16 107t47.5 87t78 58.5t108.5 21.5q54 0 96 -19t71.5 -52t44.5 -78.5t15 -97.5q0 -19 -1.5 -37.5t-3.5 -29.5h-332z M386 314q-2 48 -26.5 77.5t-68.5 29.5q-50 0 -76 -28t-31 -79h202zM107 593q-2 15 -3.5 29.5t-1.5 29.5q0 14 1.5 29t3.5 30q15 3 32.5 4.5t31.5 1.5t31.5 -1.5t33.5 -4.5q3 -15 4 -29.5t1 -29.5q0 -14 -1 -29t-4 -30q-16 -3 -33 -4t-32 -1q-13 0 -31 1t-33 4zM328 593 q-6 30 -6 59t6 59q15 3 32.5 4.5t31.5 1.5t31.5 -1.5t33.5 -4.5q2 -15 3 -29.5t1 -29.5q0 -14 -1 -29t-3 -30q-16 -3 -33.5 -4t-31.5 -1t-31.5 1t-32.5 4z" />
<glyph unicode="&#xec;" horiz-adv-x="307" d="M98 409h-67q-3 13 -4.5 27.5t-1.5 27.5q0 27 6 53h206v-517q-36 -6 -70 -6q-33 0 -69 6v409zM-51 719q20 3 38.5 4.5t44.5 1.5q49 0 90 -6l112 -123q-33 -6 -65 -6q-20 0 -38 2t-31 4z" />
<glyph unicode="&#xed;" horiz-adv-x="307" d="M98 409h-67q-3 13 -4.5 27.5t-1.5 27.5q0 27 6 53h206v-517q-36 -6 -70 -6q-33 0 -69 6v409zM158 719q40 6 90 6q26 0 44.5 -1.5t38.5 -4.5l-151 -123q-13 -2 -31 -4t-38 -2q-32 0 -65 6z" />
<glyph unicode="&#xee;" horiz-adv-x="307" d="M98 409h-67q-3 13 -4.5 27.5t-1.5 27.5q0 27 6 53h206v-517q-36 -6 -70 -6q-33 0 -69 6v409zM74 719q17 2 40 3.5t44 1.5q13 0 33.5 -1t40.5 -5l97 -123q-23 -6 -61 -6q-17 0 -37.5 1.5t-37.5 5.5l-41 64l-40 -64q-13 -4 -31.5 -5.5t-36.5 -1.5q-40 0 -68 6z" />
<glyph unicode="&#xef;" horiz-adv-x="307" d="M98 409h-67q-3 13 -4.5 27.5t-1.5 27.5q0 27 6 53h206v-517q-36 -6 -70 -6q-33 0 -69 6v409zM-21 593q-2 15 -3.5 29.5t-1.5 29.5q0 14 1.5 29t3.5 30q15 3 32.5 4.5t31.5 1.5t31.5 -1.5t33.5 -4.5q3 -15 4 -29.5t1 -29.5q0 -14 -1 -29t-4 -30q-16 -3 -33 -4t-32 -1 q-13 0 -31 1t-33 4zM200 593q-6 30 -6 59t6 59q15 3 32.5 4.5t31.5 1.5t31.5 -1.5t33.5 -4.5q2 -15 3 -29.5t1 -29.5q0 -14 -1 -29t-3 -30q-16 -3 -33.5 -4t-31.5 -1t-31.5 1t-32.5 4z" />
<glyph unicode="&#xf0;" horiz-adv-x="572" d="M209 604q-34 11 -77 13q-9 28 -9 53q0 17 3.5 33t8.5 32q57 0 104.5 -13.5t88.5 -37.5l80 54q15 -11 26 -27.5t19 -36.5l-59 -39q34 -33 59.5 -74t43 -87.5t26 -97t8.5 -102.5q0 -65 -15 -117.5t-45.5 -90t-77 -58t-108.5 -20.5t-107.5 19t-76 52.5t-45.5 78.5t-15 98 t14.5 99t43 79.5t70 53t95.5 19.5q26 0 51 -6.5t45 -21.5q-11 30 -29.5 57t-44.5 47l-90 -60q-13 11 -25 28.5t-17 36.5zM285 88q54 0 77.5 38t23.5 110t-23.5 110t-77.5 38t-77 -38t-23 -110t23 -110t77 -38z" />
<glyph unicode="&#xf1;" horiz-adv-x="587" d="M70 517q14 3 28 4.5t31 1.5t30 -1.5t27 -4.5q3 -5 5.5 -14.5t4.5 -20t3.5 -20.5t2.5 -17q10 15 24 30t32.5 27t41.5 19.5t51 7.5q88 0 132.5 -48t44.5 -151v-330q-36 -6 -71 -6t-71 6v292q0 54 -16.5 83t-57.5 29q-17 0 -35 -5t-32.5 -19.5t-23.5 -40.5t-9 -68v-271 q-36 -6 -71 -6t-71 6v517zM115 677q17 22 44.5 37.5t64.5 15.5q19 0 36.5 -5.5t34.5 -12t35 -12t37 -5.5q17 0 32 5t36 26q16 -17 27 -38t16 -42q-17 -22 -45 -36.5t-65 -14.5q-19 0 -37 5.5t-35.5 12t-35 12t-35.5 5.5q-19 0 -33 -5.5t-35 -25.5q-14 18 -26 37.5t-16 40.5z " />
<glyph unicode="&#xf2;" horiz-adv-x="580" d="M289 -12q-63 0 -109.5 20.5t-77 57t-46 85.5t-15.5 106t15.5 107t46 86.5t77 57.5t109.5 21t110 -21t78 -57.5t46 -86.5t15 -107t-15 -106t-46 -85.5t-78 -57t-110 -20.5zM289 96q56 0 80.5 41.5t24.5 119.5t-24.5 119.5t-80.5 41.5q-55 0 -79.5 -41.5t-24.5 -119.5 t24.5 -119.5t79.5 -41.5zM86 719q20 3 38.5 4.5t44.5 1.5q49 0 90 -6l112 -123q-33 -6 -65 -6q-20 0 -38 2t-31 4z" />
<glyph unicode="&#xf3;" horiz-adv-x="580" d="M289 -12q-63 0 -109.5 20.5t-77 57t-46 85.5t-15.5 106t15.5 107t46 86.5t77 57.5t109.5 21t110 -21t78 -57.5t46 -86.5t15 -107t-15 -106t-46 -85.5t-78 -57t-110 -20.5zM289 96q56 0 80.5 41.5t24.5 119.5t-24.5 119.5t-80.5 41.5q-55 0 -79.5 -41.5t-24.5 -119.5 t24.5 -119.5t79.5 -41.5zM299 719q40 6 90 6q26 0 44.5 -1.5t38.5 -4.5l-151 -123q-13 -2 -31 -4t-38 -2q-32 0 -65 6z" />
<glyph unicode="&#xf4;" horiz-adv-x="580" d="M289 -12q-63 0 -109.5 20.5t-77 57t-46 85.5t-15.5 106t15.5 107t46 86.5t77 57.5t109.5 21t110 -21t78 -57.5t46 -86.5t15 -107t-15 -106t-46 -85.5t-78 -57t-110 -20.5zM289 96q56 0 80.5 41.5t24.5 119.5t-24.5 119.5t-80.5 41.5q-55 0 -79.5 -41.5t-24.5 -119.5 t24.5 -119.5t79.5 -41.5zM211 719q17 2 40 3.5t44 1.5q13 0 33.5 -1t40.5 -5l97 -123q-23 -6 -61 -6q-17 0 -37.5 1.5t-37.5 5.5l-41 64l-40 -64q-13 -4 -31.5 -5.5t-36.5 -1.5q-40 0 -68 6z" />
<glyph unicode="&#xf5;" horiz-adv-x="580" d="M289 -12q-63 0 -109.5 20.5t-77 57t-46 85.5t-15.5 106t15.5 107t46 86.5t77 57.5t109.5 21t110 -21t78 -57.5t46 -86.5t15 -107t-15 -106t-46 -85.5t-78 -57t-110 -20.5zM289 96q56 0 80.5 41.5t24.5 119.5t-24.5 119.5t-80.5 41.5q-55 0 -79.5 -41.5t-24.5 -119.5 t24.5 -119.5t79.5 -41.5zM108 677q17 22 44.5 37.5t64.5 15.5q19 0 36.5 -5.5t34.5 -12t35 -12t37 -5.5q17 0 32 5t36 26q16 -17 27 -38t16 -42q-17 -22 -45 -36.5t-65 -14.5q-19 0 -37 5.5t-35.5 12t-35 12t-35.5 5.5q-19 0 -33 -5.5t-35 -25.5q-14 18 -26 37.5t-16 40.5z " />
<glyph unicode="&#xf6;" horiz-adv-x="580" d="M289 -12q-63 0 -109.5 20.5t-77 57t-46 85.5t-15.5 106t15.5 107t46 86.5t77 57.5t109.5 21t110 -21t78 -57.5t46 -86.5t15 -107t-15 -106t-46 -85.5t-78 -57t-110 -20.5zM289 96q56 0 80.5 41.5t24.5 119.5t-24.5 119.5t-80.5 41.5q-55 0 -79.5 -41.5t-24.5 -119.5 t24.5 -119.5t79.5 -41.5zM114 593q-2 15 -3.5 29.5t-1.5 29.5q0 14 1.5 29t3.5 30q15 3 32.5 4.5t31.5 1.5t31.5 -1.5t33.5 -4.5q3 -15 4 -29.5t1 -29.5q0 -14 -1 -29t-4 -30q-16 -3 -33 -4t-32 -1q-13 0 -31 1t-33 4zM335 593q-6 30 -6 59t6 59q15 3 32.5 4.5t31.5 1.5 t31.5 -1.5t33.5 -4.5q2 -15 3 -29.5t1 -29.5q0 -14 -1 -29t-3 -30q-16 -3 -33.5 -4t-31.5 -1t-31.5 1t-32.5 4z" />
<glyph unicode="&#xf7;" d="M217 559q0 34 24 58.5t58 24.5t58.5 -24.5t24.5 -58.5t-24.5 -58t-58.5 -24t-58 24t-24 58zM217 153q0 34 24 58.5t58 24.5t58.5 -24.5t24.5 -58.5t-24.5 -58t-58.5 -24t-58 24t-24 58zM511 414q6 -30 6 -60q0 -31 -6 -61h-421q-6 30 -6 60q0 31 6 61h421z" />
<glyph unicode="&#xf8;" horiz-adv-x="580" d="M105 62q-32 36 -48 86t-16 109q0 57 15.5 107t46 86.5t77 57.5t109.5 21q46 0 83 -11.5t66 -31.5l19 23q8 2 18 3t20 1q25 0 40 -3l-53 -67q29 -36 42.5 -83.5t13.5 -102.5q0 -57 -15 -106t-46 -85.5t-78 -57t-110 -20.5q-81 0 -137 35l-17 -22q-9 -2 -19 -3t-19 -1 q-12 0 -22.5 0.5t-17.5 2.5zM361 387q-26 31 -72 31q-55 0 -79.5 -41.5t-24.5 -119.5q0 -24 2 -45t7 -38zM227 117q24 -21 62 -21q56 0 80.5 41.5t24.5 119.5q0 37 -6 66z" />
<glyph unicode="&#xf9;" horiz-adv-x="572" d="M61 517q36 6 71 6t71 -6v-274q0 -41 6.5 -67.5t20 -42t33.5 -22t47 -6.5q37 0 62 7v405q36 6 70 6q35 0 71 -6v-497q-32 -11 -84.5 -21.5t-109.5 -10.5q-51 0 -98 8t-82.5 34t-56.5 76t-21 133v278zM105 719q20 3 38.5 4.5t44.5 1.5q49 0 90 -6l112 -123q-33 -6 -65 -6 q-20 0 -38 2t-31 4z" />
<glyph unicode="&#xfa;" horiz-adv-x="572" d="M61 517q36 6 71 6t71 -6v-274q0 -41 6.5 -67.5t20 -42t33.5 -22t47 -6.5q37 0 62 7v405q36 6 70 6q35 0 71 -6v-497q-32 -11 -84.5 -21.5t-109.5 -10.5q-51 0 -98 8t-82.5 34t-56.5 76t-21 133v278zM308 719q40 6 90 6q26 0 44.5 -1.5t38.5 -4.5l-151 -123q-13 -2 -31 -4 t-38 -2q-32 0 -65 6z" />
<glyph unicode="&#xfb;" horiz-adv-x="572" d="M61 517q36 6 71 6t71 -6v-274q0 -41 6.5 -67.5t20 -42t33.5 -22t47 -6.5q37 0 62 7v405q36 6 70 6q35 0 71 -6v-497q-32 -11 -84.5 -21.5t-109.5 -10.5q-51 0 -98 8t-82.5 34t-56.5 76t-21 133v278zM208 719q17 2 40 3.5t44 1.5q13 0 33.5 -1t40.5 -5l97 -123 q-23 -6 -61 -6q-17 0 -37.5 1.5t-37.5 5.5l-41 64l-40 -64q-13 -4 -31.5 -5.5t-36.5 -1.5q-40 0 -68 6z" />
<glyph unicode="&#xfc;" horiz-adv-x="572" d="M61 517q36 6 71 6t71 -6v-274q0 -41 6.5 -67.5t20 -42t33.5 -22t47 -6.5q37 0 62 7v405q36 6 70 6q35 0 71 -6v-497q-32 -11 -84.5 -21.5t-109.5 -10.5q-51 0 -98 8t-82.5 34t-56.5 76t-21 133v278zM119 593q-2 15 -3.5 29.5t-1.5 29.5q0 14 1.5 29t3.5 30q15 3 32.5 4.5 t31.5 1.5t31.5 -1.5t33.5 -4.5q3 -15 4 -29.5t1 -29.5q0 -14 -1 -29t-4 -30q-16 -3 -33 -4t-32 -1q-13 0 -31 1t-33 4zM340 593q-6 30 -6 59t6 59q15 3 32.5 4.5t31.5 1.5t31.5 -1.5t33.5 -4.5q2 -15 3 -29.5t1 -29.5q0 -14 -1 -29t-3 -30q-16 -3 -33.5 -4t-31.5 -1t-31.5 1 t-32.5 4z" />
<glyph unicode="&#xfd;" horiz-adv-x="542" d="M10 517q23 5 40.5 5.5t32.5 0.5q20 0 41 -1t38 -5l108 -451l122 451q33 6 68 6q15 0 32 -0.5t42 -5.5l-193 -639q-12 -38 -28.5 -63t-37.5 -39t-47 -19.5t-56 -5.5q-28 0 -50.5 3.5t-44.5 9.5q-1 5 -1 8.5v7.5q0 24 5.5 45.5t13.5 41.5q9 -3 24 -5.5t30 -2.5q12 0 24 1.5 t23.5 9t21.5 23.5t18 45l17 62q-11 -1 -24.5 -1.5t-27.5 -0.5h-21t-18 2zM275 719q40 6 90 6q26 0 44.5 -1.5t38.5 -4.5l-151 -123q-13 -2 -31 -4t-38 -2q-32 0 -65 6z" />
<glyph unicode="&#xfe;" horiz-adv-x="591" d="M209 110q27 -8 62 -8q62 0 95 40t33 121q0 31 -5 57.5t-17 45.5t-30.5 30t-45.5 11q-25 0 -42.5 -9.5t-28.5 -26t-16 -38.5t-5 -47v-176zM67 731q19 3 36.5 4t34.5 1t34.5 -1t36.5 -4v-272q20 28 53 49t83 21q43 0 80.5 -16t65.5 -48.5t43.5 -81.5t15.5 -116 q0 -65 -19 -116.5t-55 -87.5t-88 -55.5t-118 -19.5q-17 0 -33.5 1.5t-27.5 3.5v-230q-19 -3 -36.5 -4t-34.5 -1t-34.5 1t-36.5 4v968z" />
<glyph unicode="&#xff;" horiz-adv-x="542" d="M10 517q23 5 40.5 5.5t32.5 0.5q20 0 41 -1t38 -5l108 -451l122 451q33 6 68 6q15 0 32 -0.5t42 -5.5l-193 -639q-12 -38 -28.5 -63t-37.5 -39t-47 -19.5t-56 -5.5q-28 0 -50.5 3.5t-44.5 9.5q-1 5 -1 8.5v7.5q0 24 5.5 45.5t13.5 41.5q9 -3 24 -5.5t30 -2.5q12 0 24 1.5 t23.5 9t21.5 23.5t18 45l17 62q-11 -1 -24.5 -1.5t-27.5 -0.5h-21t-18 2zM99 593q-2 15 -3.5 29.5t-1.5 29.5q0 14 1.5 29t3.5 30q15 3 32.5 4.5t31.5 1.5t31.5 -1.5t33.5 -4.5q3 -15 4 -29.5t1 -29.5q0 -14 -1 -29t-4 -30q-16 -3 -33 -4t-32 -1q-13 0 -31 1t-33 4zM320 593 q-6 30 -6 59t6 59q15 3 32.5 4.5t31.5 1.5t31.5 -1.5t33.5 -4.5q2 -15 3 -29.5t1 -29.5q0 -14 -1 -29t-3 -30q-16 -3 -33.5 -4t-31.5 -1t-31.5 1t-32.5 4z" />
<glyph unicode="&#x131;" horiz-adv-x="307" d="M98 409h-67q-3 13 -4.5 27.5t-1.5 27.5q0 27 6 53h206v-517q-36 -6 -70 -6q-33 0 -69 6v409z" />
<glyph unicode="&#x152;" horiz-adv-x="935" d="M889 124q6 -30 6 -61q0 -33 -6 -63h-396q-13 -3 -28.5 -5.5t-32 -4t-32.5 -2t-29 -0.5q-81 0 -141.5 28t-101 77.5t-60.5 117t-20 147.5t20 148.5t60.5 118.5t101 78t141.5 28q26 0 59.5 -3t57.5 -9h394q6 -30 6 -61q0 -33 -6 -63h-262v-156h208q6 -32 6 -62 q0 -32 -6 -63h-208v-190h269zM474 593q-20 6 -43.5 9.5t-58.5 3.5q-79 0 -123.5 -62t-44.5 -186q0 -125 44 -186.5t123 -61.5q36 0 59.5 3.5t43.5 11.5v468z" />
<glyph unicode="&#x153;" horiz-adv-x="893" d="M534 215q4 -60 37 -87t95 -27q34 0 64.5 6.5t62.5 18.5q11 -20 19 -48t9 -60q-39 -15 -78 -22.5t-88 -7.5q-67 0 -112.5 22.5t-76.5 61.5q-32 -42 -73 -63t-100 -21q-63 0 -110 20.5t-78.5 57t-47.5 85.5t-16 106t16 107t47.5 86.5t78.5 57.5t110 21q57 0 99.5 -21.5 t73.5 -62.5q29 41 72.5 62.5t95.5 21.5t92 -19t68 -52t42.5 -78.5t14.5 -97.5q0 -19 -1.5 -37.5t-3.5 -29.5h-312zM293 96q56 0 82.5 41.5t26.5 119.5t-26.5 119.5t-82.5 41.5q-55 0 -81.5 -41.5t-26.5 -119.5t26.5 -119.5t81.5 -41.5zM717 314q-2 48 -24 77.5t-61 29.5 q-42 0 -67 -28t-30 -79h182z" />
<glyph unicode="&#x178;" horiz-adv-x="615" d="M234 257l-224 462q42 6 84 6q38 0 76 -6l142 -326l140 326q37 6 76 6q36 0 77 -6l-224 -462v-258q-20 -3 -38 -4t-36 -1q-17 0 -35.5 1t-37.5 4v258zM132 789q-2 15 -3.5 29.5t-1.5 29.5q0 14 1.5 29t3.5 30q15 3 32.5 4.5t31.5 1.5t31.5 -1.5t33.5 -4.5q3 -15 4 -29.5 t1 -29.5q0 -14 -1 -29t-4 -30q-16 -3 -33 -4t-32 -1q-13 0 -31 1t-33 4zM353 789q-6 30 -6 59t6 59q15 3 32.5 4.5t31.5 1.5t31.5 -1.5t33.5 -4.5q2 -15 3 -29.5t1 -29.5q0 -14 -1 -29t-3 -30q-16 -3 -33.5 -4t-31.5 -1t-31.5 1t-32.5 4z" />
<glyph unicode="&#x2c6;" horiz-adv-x="498" d="M171 719q17 2 40 3.5t44 1.5q13 0 33.5 -1t40.5 -5l97 -123q-23 -6 -61 -6q-17 0 -37.5 1.5t-37.5 5.5l-41 64l-40 -64q-13 -4 -31.5 -5.5t-36.5 -1.5q-40 0 -68 6z" />
<glyph unicode="&#x2da;" horiz-adv-x="504" d="M135 695q0 54 33.5 84t83.5 30t83.5 -30t33.5 -84t-33.5 -84t-83.5 -30t-83.5 30t-33.5 84zM252 640q20 0 33.5 14.5t13.5 40.5t-13.5 40.5t-33.5 14.5t-33.5 -14.5t-13.5 -40.5t13.5 -40.5t33.5 -14.5z" />
<glyph unicode="&#x2dc;" horiz-adv-x="500" d="M69 677q17 22 44.5 37.5t64.5 15.5q19 0 36.5 -5.5t34.5 -12t35 -12t37 -5.5q17 0 32 5t36 26q16 -17 27 -38t16 -42q-17 -22 -45 -36.5t-65 -14.5q-19 0 -37 5.5t-35.5 12t-35 12t-35.5 5.5q-19 0 -33 -5.5t-35 -25.5q-14 18 -26 37.5t-16 40.5z" />
<glyph unicode="&#x2000;" horiz-adv-x="468" />
<glyph unicode="&#x2001;" horiz-adv-x="936" />
<glyph unicode="&#x2002;" horiz-adv-x="468" />
<glyph unicode="&#x2003;" horiz-adv-x="936" />
<glyph unicode="&#x2004;" horiz-adv-x="312" />
<glyph unicode="&#x2005;" horiz-adv-x="234" />
<glyph unicode="&#x2006;" horiz-adv-x="156" />
<glyph unicode="&#x2007;" horiz-adv-x="156" />
<glyph unicode="&#x2008;" horiz-adv-x="117" />
<glyph unicode="&#x2009;" horiz-adv-x="187" />
<glyph unicode="&#x200a;" horiz-adv-x="52" />
<glyph unicode="&#x2010;" horiz-adv-x="371" d="M313 336q6 -30 6 -61q0 -32 -6 -62h-255q-6 30 -6 61q0 32 6 62h255z" />
<glyph unicode="&#x2011;" horiz-adv-x="371" d="M313 336q6 -30 6 -61q0 -32 -6 -62h-255q-6 30 -6 61q0 32 6 62h255z" />
<glyph unicode="&#x2012;" horiz-adv-x="371" d="M313 336q6 -30 6 -61q0 -32 -6 -62h-255q-6 30 -6 61q0 32 6 62h255z" />
<glyph unicode="&#x2013;" horiz-adv-x="500" d="M500 336q6 -32 6 -61q0 -31 -6 -62h-500q-6 31 -6 61t6 62h500z" />
<glyph unicode="&#x2014;" horiz-adv-x="1000" d="M1000 336q6 -32 6 -61q0 -31 -6 -62h-1000q-6 31 -6 61t6 62h1000z" />
<glyph unicode="&#x2018;" horiz-adv-x="304" d="M50 718q17 4 36 5.5t35 1.5t33 -1.5t34 -5.5l66 -256q-17 -4 -32.5 -5t-31.5 -1t-33 1t-34 5z" />
<glyph unicode="&#x2019;" horiz-adv-x="304" d="M116 718q17 4 34 5.5t33 1.5t35 -1.5t36 -5.5l-73 -256q-17 -4 -34 -5t-33 -1t-31.5 1t-32.5 5z" />
<glyph unicode="&#x201a;" horiz-adv-x="304" d="M116 144q17 4 34 5.5t33 1.5t35 -1.5t36 -5.5l-73 -256q-17 -4 -34 -5t-33 -1t-31.5 1t-32.5 5z" />
<glyph unicode="&#x201c;" horiz-adv-x="516" d="M50 718q17 4 36 5.5t35 1.5t33 -1.5t34 -5.5l66 -256q-17 -4 -32.5 -5t-31.5 -1t-33 1t-34 5zM262 718q17 4 36 5.5t35 1.5t33 -1.5t34 -5.5l66 -256q-17 -4 -32.5 -5t-31.5 -1t-33 1t-34 5z" />
<glyph unicode="&#x201d;" horiz-adv-x="516" d="M116 718q17 4 34 5.5t33 1.5t35 -1.5t36 -5.5l-73 -256q-17 -4 -34 -5t-33 -1t-31.5 1t-32.5 5zM328 718q17 4 34 5.5t33 1.5t35 -1.5t36 -5.5l-73 -256q-17 -4 -34 -5t-33 -1t-31.5 1t-32.5 5z" />
<glyph unicode="&#x201e;" horiz-adv-x="516" d="M116 144q17 4 34 5.5t33 1.5t35 -1.5t36 -5.5l-73 -256q-17 -4 -34 -5t-33 -1t-31.5 1t-32.5 5zM328 144q17 4 34 5.5t33 1.5t35 -1.5t36 -5.5l-73 -256q-17 -4 -34 -5t-33 -1t-31.5 1t-32.5 5z" />
<glyph unicode="&#x2022;" horiz-adv-x="450" d="M75 367q0 31 12 58t32 47.5t47.5 32.5t58.5 12t58 -12t47.5 -32.5t32.5 -47.5t12 -58t-12 -58.5t-32.5 -47.5t-47.5 -32t-58 -12t-58.5 12t-47.5 32t-32 47.5t-12 58.5z" />
<glyph unicode="&#x2026;" horiz-adv-x="829" d="M71 0q-6 37 -6 73t6 74q37 6 73 6t74 -6q6 -38 6 -73q0 -37 -6 -74q-38 -6 -73 -6q-37 0 -74 6zM341 0q-6 37 -6 73t6 74q37 6 73 6t74 -6q6 -38 6 -73q0 -37 -6 -74q-38 -6 -73 -6q-37 0 -74 6zM611 0q-6 37 -6 73t6 74q37 6 73 6t74 -6q6 -38 6 -73q0 -37 -6 -74 q-38 -6 -73 -6q-37 0 -74 6z" />
<glyph unicode="&#x202f;" horiz-adv-x="187" />
<glyph unicode="&#x2039;" horiz-adv-x="373" d="M40 266l156 222q31 6 67 6q40 0 79 -6l-154 -222l154 -222q-39 -6 -79 -6q-36 0 -67 6z" />
<glyph unicode="&#x203a;" horiz-adv-x="373" d="M185 266l-154 222q39 6 79 6q35 0 67 -6l156 -222l-156 -222q-32 -6 -67 -6q-40 0 -79 6z" />
<glyph unicode="&#x2044;" horiz-adv-x="220" d="M282 709q34 6 70 6q31 0 69 -6l-484 -707q-35 -6 -67 -6q-34 0 -71 6z" />
<glyph unicode="&#x205f;" horiz-adv-x="234" />
<glyph unicode="&#x2070;" horiz-adv-x="450" d="M229 389q36 0 53 32t17 85q0 54 -17 85.5t-53 31.5t-53 -31.5t-17 -85.5q0 -53 17 -85t53 -32zM229 294q-50 0 -86.5 18t-60 47.5t-35 67.5t-11.5 79t11.5 79.5t35 68t60 47.5t86.5 18q49 0 85.5 -18t60.5 -47.5t35.5 -68t11.5 -79.5t-11.5 -79t-35.5 -67.5t-60.5 -47.5 t-85.5 -18z" />
<glyph unicode="&#x2074;" horiz-adv-x="450" d="M39 396l158 326q25 -2 48.5 -10t44.5 -22l-103 -225h64v71q24 3 54 3q27 0 51 -3v-71h43q4 -19 4 -45q0 -23 -4 -42h-43v-73q-23 -4 -53 -4q-32 0 -52 4v73h-201z" />
<glyph unicode="&#x20ac;" d="M112 307q-1 10 -1 20.5v21.5v19.5t1 19.5h-79q-5 15 -5 41t5 43h89q12 55 35 101t59.5 78t86 50t114.5 18q48 0 88.5 -6t87.5 -25q-2 -30 -12 -58.5t-22 -57.5q-35 12 -62 17t-64 5q-68 0 -103.5 -30.5t-49.5 -91.5h207q2 -7 3 -17.5t1 -21.5q0 -13 -1 -25t-3 -20h-218 v-39v-21.5t1 -20.5h217q2 -7 3 -17.5t1 -21.5q0 -13 -1 -25t-3 -20h-206q15 -57 51.5 -83t108.5 -26q37 0 65 5t63 17q13 -28 21.5 -57.5t12.5 -59.5q-52 -19 -93.5 -25t-89.5 -6q-67 0 -117.5 16.5t-86.5 47t-59 74t-34 97.5h-90q-5 15 -5 41t5 43h79z" />
<glyph unicode="&#x2122;" horiz-adv-x="800" d="M112 612h-96q-4 20 -4 45q0 27 4 50h294q2 -12 3 -24t1 -24t-1 -24t-3 -23h-95v-304q-14 -3 -27 -5t-27 -2q-25 0 -49 7v304zM372 706q17 2 30.5 3.5t25.5 1.5q10 0 22 -1.5t29 -3.5l76 -190l74 190q14 2 25.5 3.5t24.5 1.5q11 0 24.5 -1.5t28.5 -3.5l22 -398 q-16 -3 -28 -4.5t-24 -1.5q-10 0 -22.5 0.5t-28.5 5.5l-13 203l-56 -131q-9 -2 -16.5 -2.5t-20.5 -0.5q-8 0 -16.5 0.5t-22.5 2.5l-46 127l-10 -199q-15 -5 -27 -5.5t-22 -0.5q-11 0 -22.5 1.5t-28.5 4.5z" />
<glyph unicode="&#x2212;" d="M511 414q6 -30 6 -60q0 -31 -6 -61h-421q-6 30 -6 60q0 31 6 61h421z" />
<glyph unicode="&#x25fc;" horiz-adv-x="525" d="M0 525h525v-525h-525v525z" />
<glyph horiz-adv-x="500" d="M60 863q17 22 46.5 39t67.5 17q19 0 37.5 -6.5t36.5 -14t36.5 -14t38.5 -6.5q18 0 33.5 6.5t37.5 27.5q33 -35 45 -76q-17 -22 -46 -38t-64 -16q-21 0 -41 6.5t-39 14t-37.5 14t-36.5 6.5q-20 0 -34.5 -7t-36.5 -27q-15 18 -27 35.5t-17 38.5z" />
<glyph horiz-adv-x="500" d="M75 789q-2 15 -3.5 29.5t-1.5 29.5q0 14 1.5 29t3.5 30q15 3 32.5 4.5t31.5 1.5t31.5 -1.5t33.5 -4.5q3 -15 4 -29.5t1 -29.5q0 -14 -1 -29t-4 -30q-16 -3 -33 -4t-32 -1q-13 0 -31 1t-33 4zM296 789q-6 30 -6 59t6 59q15 3 32.5 4.5t31.5 1.5t31.5 -1.5t33.5 -4.5 q2 -15 3 -29.5t1 -29.5q0 -14 -1 -29t-3 -30q-16 -3 -33.5 -4t-31.5 -1t-31.5 1t-32.5 4z" />
<glyph horiz-adv-x="498" d="M162 885q15 2 37 4t50 2q27 0 49 -2t38 -4l106 -104q-14 -3 -33.5 -4.5t-38.5 -1.5q-17 0 -40 1.5t-35 4.5l-47 50l-45 -50q-6 -2 -16 -3t-21 -1.5l-22 -1t-20 -0.5q-19 0 -36.5 1.5t-31.5 4.5z" />
<glyph horiz-adv-x="500" d="M203 885q22 3 48.5 5t53.5 2q26 0 50 -2t41 -5l-147 -104q-18 -4 -36 -5t-35 -1q-37 0 -73 6z" />
<glyph horiz-adv-x="500" d="M105 885q17 3 41 5t50 2q27 0 53.5 -2t48.5 -5l98 -104q-36 -6 -73 -6q-17 0 -35 1t-36 5z" />
<hkern u1="T" u2="&#xef;" k="-30" />
<hkern u1="T" u2="&#xec;" k="-40" />
<hkern u1="V" u2="&#xef;" k="-30" />
<hkern u1="V" u2="&#xec;" k="-70" />
<hkern u1="W" u2="&#xef;" k="-30" />
<hkern u1="W" u2="&#xec;" k="-40" />
<hkern u1="Y" u2="&#xef;" k="-30" />
<hkern u1="Y" u2="&#xec;" k="-30" />
<hkern u1="f" u2="&#xef;" k="-55" />
<hkern u1="f" u2="&#xee;" k="-30" />
<hkern u1="f" u2="&#xec;" k="-64" />
</font>
</defs></svg> 